

================================================================
== Vivado HLS Report for 'fir'
================================================================
* Date:           Tue Oct 10 23:33:12 2017

* Version:        2015.4 (Build 1412921 on Wed Nov 18 09:58:55 AM 2015)
* Project:        optimized5
* Solution:       solution3
* Product family: zynq
* Target device:  xc7z020clg484-1


================================================================
== Performance Estimates
================================================================
+ Timing (ns): 
    * Summary: 
    +--------+-------+----------+------------+
    |  Clock | Target| Estimated| Uncertainty|
    +--------+-------+----------+------------+
    |ap_clk  |  10.00|      8.52|        1.25|
    +--------+-------+----------+------------+

+ Latency (clock cycles): 
    * Summary: 
    +-----+-----+-----+-----+---------+
    |  Latency  |  Interval | Pipeline|
    | min | max | min | max |   Type  |
    +-----+-----+-----+-----+---------+
    |  513|  513|  514|  514|   none  |
    +-----+-----+-----+-----+---------+

    + Detail: 
        * Instance: 
        N/A

        * Loop: 
        +--------------------+-----+-----+----------+-----------+-----------+------+----------+
        |                    |  Latency  | Iteration|  Initiation Interval  | Trip |          |
        |      Loop Name     | min | max |  Latency |  achieved |   target  | Count| Pipelined|
        +--------------------+-----+-----+----------+-----------+-----------+------+----------+
        |- fir_slide_window  |  512|  512|         4|          -|          -|   128|    no    |
        +--------------------+-----+-----+----------+-----------+-----------+------+----------+



================================================================
== Utilization Estimates
================================================================
* Summary: 
+-----------------+---------+-------+--------+-------+
|       Name      | BRAM_18K| DSP48E|   FF   |  LUT  |
+-----------------+---------+-------+--------+-------+
|DSP              |        -|      -|       -|      -|
|Expression       |        -|      -|       0|     53|
|FIFO             |        -|      -|       -|      -|
|Instance         |        -|      2|       0|   1088|
|Memory           |        0|      -|       5|     10|
|Multiplexer      |        -|      -|       -|    105|
|Register         |        -|      -|    4181|      -|
+-----------------+---------+-------+--------+-------+
|Total            |        0|      2|    4186|   1256|
+-----------------+---------+-------+--------+-------+
|Available        |      280|    220|  106400|  53200|
+-----------------+---------+-------+--------+-------+
|Utilization (%)  |        0|   ~0  |       3|      2|
+-----------------+---------+-------+--------+-------+

+ Detail: 
    * Instance: 
    +-----------------------------+--------------------------+---------+-------+---+------+
    |           Instance          |          Module          | BRAM_18K| DSP48E| FF|  LUT |
    +-----------------------------+--------------------------+---------+-------+---+------+
    |fir_mul_5s_32s_32_3_U1       |fir_mul_5s_32s_32_3       |        0|      2|  0|     0|
    |fir_mux_128to1_sel8_32_1_U0  |fir_mux_128to1_sel8_32_1  |        0|      0|  0|  1088|
    +-----------------------------+--------------------------+---------+-------+---+------+
    |Total                        |                          |        0|      2|  0|  1088|
    +-----------------------------+--------------------------+---------+-------+---+------+

    * DSP48: 
    N/A

    * Memory: 
    +-------+-------+---------+---+----+------+-----+------+-------------+
    | Memory| Module| BRAM_18K| FF| LUT| Words| Bits| Banks| W*Bits*Banks|
    +-------+-------+---------+---+----+------+-----+------+-------------+
    |c_U    |fir_c  |        0|  5|  10|   128|    5|     1|          640|
    +-------+-------+---------+---+----+------+-----+------+-------------+
    |Total  |       |        0|  5|  10|   128|    5|     1|          640|
    +-------+-------+---------+---+----+------+-----+------+-------------+

    * FIFO: 
    N/A

    * Expression: 
    +-------------------------+----------+-------+---+----+------------+------------+
    |      Variable Name      | Operation| DSP48E| FF| LUT| Bitwidth P0| Bitwidth P1|
    +-------------------------+----------+-------+---+----+------------+------------+
    |accumulate_1_fu_2063_p2  |     +    |      0|  0|  32|          32|          32|
    |i_1_fu_2047_p2           |     +    |      0|  0|   8|           8|           2|
    |tmp_2_fu_449_p2          |     +    |      0|  0|   8|           2|           8|
    |ap_sig_bdd_1168          |    and   |      0|  0|   1|           1|           1|
    |ap_sig_bdd_190           |    and   |      0|  0|   1|           1|           1|
    |tmp_1_fu_443_p2          |   icmp   |      0|  0|   3|           8|           1|
    +-------------------------+----------+-------+---+----+------------+------------+
    |Total                    |          |      0|  0|  53|          52|          45|
    +-------------------------+----------+-------+---+----+------------+------------+

    * Multiplexer: 
    +--------------------+----+-----------+-----+-----------+
    |        Name        | LUT| Input Size| Bits| Total Bits|
    +--------------------+----+-----------+-----+-----------+
    |accumulate_reg_397  |  32|          2|   32|         64|
    |ap_NS_fsm           |   1|          6|    1|          6|
    |data1_reg_421       |  32|          2|   32|         64|
    |i_reg_410           |   8|          2|    8|         16|
    |shift_reg_0_0       |  32|          2|   32|         64|
    +--------------------+----+-----------+-----+-----------+
    |Total               | 105|         14|  105|        214|
    +--------------------+----+-----------+-----+-----------+

    * Register: 
    +--------------------+----+----+-----+-----------+
    |        Name        | FF | LUT| Bits| Const Bits|
    +--------------------+----+----+-----+-----------+
    |accumulate_reg_397  |  32|   0|   32|          0|
    |ap_CS_fsm           |   5|   0|    5|          0|
    |data1_reg_421       |  32|   0|   32|          0|
    |i_1_reg_2097        |   8|   0|    8|          0|
    |i_reg_410           |   8|   0|    8|          0|
    |shift_reg_0_0       |  32|   0|   32|          0|
    |shift_reg_0_1       |  32|   0|   32|          0|
    |shift_reg_0_2       |  32|   0|   32|          0|
    |shift_reg_0_3       |  32|   0|   32|          0|
    |shift_reg_10_0      |  32|   0|   32|          0|
    |shift_reg_10_1      |  32|   0|   32|          0|
    |shift_reg_10_2      |  32|   0|   32|          0|
    |shift_reg_10_3      |  32|   0|   32|          0|
    |shift_reg_11_0      |  32|   0|   32|          0|
    |shift_reg_11_1      |  32|   0|   32|          0|
    |shift_reg_11_2      |  32|   0|   32|          0|
    |shift_reg_11_3      |  32|   0|   32|          0|
    |shift_reg_12_0      |  32|   0|   32|          0|
    |shift_reg_12_1      |  32|   0|   32|          0|
    |shift_reg_12_2      |  32|   0|   32|          0|
    |shift_reg_12_3      |  32|   0|   32|          0|
    |shift_reg_13_0      |  32|   0|   32|          0|
    |shift_reg_13_1      |  32|   0|   32|          0|
    |shift_reg_13_2      |  32|   0|   32|          0|
    |shift_reg_13_3      |  32|   0|   32|          0|
    |shift_reg_14_0      |  32|   0|   32|          0|
    |shift_reg_14_1      |  32|   0|   32|          0|
    |shift_reg_14_2      |  32|   0|   32|          0|
    |shift_reg_14_3      |  32|   0|   32|          0|
    |shift_reg_15_0      |  32|   0|   32|          0|
    |shift_reg_15_1      |  32|   0|   32|          0|
    |shift_reg_15_2      |  32|   0|   32|          0|
    |shift_reg_15_3      |  32|   0|   32|          0|
    |shift_reg_16_0      |  32|   0|   32|          0|
    |shift_reg_16_1      |  32|   0|   32|          0|
    |shift_reg_16_2      |  32|   0|   32|          0|
    |shift_reg_16_3      |  32|   0|   32|          0|
    |shift_reg_17_0      |  32|   0|   32|          0|
    |shift_reg_17_1      |  32|   0|   32|          0|
    |shift_reg_17_2      |  32|   0|   32|          0|
    |shift_reg_17_3      |  32|   0|   32|          0|
    |shift_reg_18_0      |  32|   0|   32|          0|
    |shift_reg_18_1      |  32|   0|   32|          0|
    |shift_reg_18_2      |  32|   0|   32|          0|
    |shift_reg_18_3      |  32|   0|   32|          0|
    |shift_reg_19_0      |  32|   0|   32|          0|
    |shift_reg_19_1      |  32|   0|   32|          0|
    |shift_reg_19_2      |  32|   0|   32|          0|
    |shift_reg_19_3      |  32|   0|   32|          0|
    |shift_reg_1_0       |  32|   0|   32|          0|
    |shift_reg_1_1       |  32|   0|   32|          0|
    |shift_reg_1_2       |  32|   0|   32|          0|
    |shift_reg_1_3       |  32|   0|   32|          0|
    |shift_reg_20_0      |  32|   0|   32|          0|
    |shift_reg_20_1      |  32|   0|   32|          0|
    |shift_reg_20_2      |  32|   0|   32|          0|
    |shift_reg_20_3      |  32|   0|   32|          0|
    |shift_reg_21_0      |  32|   0|   32|          0|
    |shift_reg_21_1      |  32|   0|   32|          0|
    |shift_reg_21_2      |  32|   0|   32|          0|
    |shift_reg_21_3      |  32|   0|   32|          0|
    |shift_reg_22_0      |  32|   0|   32|          0|
    |shift_reg_22_1      |  32|   0|   32|          0|
    |shift_reg_22_2      |  32|   0|   32|          0|
    |shift_reg_22_3      |  32|   0|   32|          0|
    |shift_reg_23_0      |  32|   0|   32|          0|
    |shift_reg_23_1      |  32|   0|   32|          0|
    |shift_reg_23_2      |  32|   0|   32|          0|
    |shift_reg_23_3      |  32|   0|   32|          0|
    |shift_reg_24_0      |  32|   0|   32|          0|
    |shift_reg_24_1      |  32|   0|   32|          0|
    |shift_reg_24_2      |  32|   0|   32|          0|
    |shift_reg_24_3      |  32|   0|   32|          0|
    |shift_reg_25_0      |  32|   0|   32|          0|
    |shift_reg_25_1      |  32|   0|   32|          0|
    |shift_reg_25_2      |  32|   0|   32|          0|
    |shift_reg_25_3      |  32|   0|   32|          0|
    |shift_reg_26_0      |  32|   0|   32|          0|
    |shift_reg_26_1      |  32|   0|   32|          0|
    |shift_reg_26_2      |  32|   0|   32|          0|
    |shift_reg_26_3      |  32|   0|   32|          0|
    |shift_reg_27_0      |  32|   0|   32|          0|
    |shift_reg_27_1      |  32|   0|   32|          0|
    |shift_reg_27_2      |  32|   0|   32|          0|
    |shift_reg_27_3      |  32|   0|   32|          0|
    |shift_reg_28_0      |  32|   0|   32|          0|
    |shift_reg_28_1      |  32|   0|   32|          0|
    |shift_reg_28_2      |  32|   0|   32|          0|
    |shift_reg_28_3      |  32|   0|   32|          0|
    |shift_reg_29_0      |  32|   0|   32|          0|
    |shift_reg_29_1      |  32|   0|   32|          0|
    |shift_reg_29_2      |  32|   0|   32|          0|
    |shift_reg_29_3      |  32|   0|   32|          0|
    |shift_reg_2_0       |  32|   0|   32|          0|
    |shift_reg_2_1       |  32|   0|   32|          0|
    |shift_reg_2_2       |  32|   0|   32|          0|
    |shift_reg_2_3       |  32|   0|   32|          0|
    |shift_reg_30_0      |  32|   0|   32|          0|
    |shift_reg_30_1      |  32|   0|   32|          0|
    |shift_reg_30_2      |  32|   0|   32|          0|
    |shift_reg_30_3      |  32|   0|   32|          0|
    |shift_reg_31_0      |  32|   0|   32|          0|
    |shift_reg_31_1      |  32|   0|   32|          0|
    |shift_reg_31_2      |  32|   0|   32|          0|
    |shift_reg_31_3      |  32|   0|   32|          0|
    |shift_reg_3_0       |  32|   0|   32|          0|
    |shift_reg_3_1       |  32|   0|   32|          0|
    |shift_reg_3_2       |  32|   0|   32|          0|
    |shift_reg_3_3       |  32|   0|   32|          0|
    |shift_reg_4_0       |  32|   0|   32|          0|
    |shift_reg_4_1       |  32|   0|   32|          0|
    |shift_reg_4_2       |  32|   0|   32|          0|
    |shift_reg_4_3       |  32|   0|   32|          0|
    |shift_reg_5_0       |  32|   0|   32|          0|
    |shift_reg_5_1       |  32|   0|   32|          0|
    |shift_reg_5_2       |  32|   0|   32|          0|
    |shift_reg_5_3       |  32|   0|   32|          0|
    |shift_reg_6_0       |  32|   0|   32|          0|
    |shift_reg_6_1       |  32|   0|   32|          0|
    |shift_reg_6_2       |  32|   0|   32|          0|
    |shift_reg_6_3       |  32|   0|   32|          0|
    |shift_reg_7_0       |  32|   0|   32|          0|
    |shift_reg_7_1       |  32|   0|   32|          0|
    |shift_reg_7_2       |  32|   0|   32|          0|
    |shift_reg_7_3       |  32|   0|   32|          0|
    |shift_reg_8_0       |  32|   0|   32|          0|
    |shift_reg_8_1       |  32|   0|   32|          0|
    |shift_reg_8_2       |  32|   0|   32|          0|
    |shift_reg_8_3       |  32|   0|   32|          0|
    |shift_reg_9_0       |  32|   0|   32|          0|
    |shift_reg_9_1       |  32|   0|   32|          0|
    |shift_reg_9_2       |  32|   0|   32|          0|
    |shift_reg_9_3       |  32|   0|   32|          0|
    +--------------------+----+----+-----+-----------+
    |Total               |4181|   0| 4181|          0|
    +--------------------+----+----+-----+-----------+



================================================================
== Interface
================================================================
* Summary: 
+----------+-----+-----+------------+--------------+--------------+
| RTL Ports| Dir | Bits|  Protocol  | Source Object|    C Type    |
+----------+-----+-----+------------+--------------+--------------+
|ap_clk    |  in |    1| ap_ctrl_hs |      fir     | return value |
|ap_rst    |  in |    1| ap_ctrl_hs |      fir     | return value |
|ap_start  |  in |    1| ap_ctrl_hs |      fir     | return value |
|ap_done   | out |    1| ap_ctrl_hs |      fir     | return value |
|ap_idle   | out |    1| ap_ctrl_hs |      fir     | return value |
|ap_ready  | out |    1| ap_ctrl_hs |      fir     | return value |
|y         | out |   32|   ap_vld   |       y      |    pointer   |
|y_ap_vld  | out |    1|   ap_vld   |       y      |    pointer   |
|x         |  in |   32|   ap_none  |       x      |    scalar    |
+----------+-----+-----+------------+--------------+--------------+

