0.000000000000000
0.000000000000000
0.000000190218415
0.000000089369742
0.000000226153233
0.000000124160024
-0.000000121800426
-0.000000096413750
-0.000000339213926
-0.000000248827490
-0.000000117727822
0.000000095339765
0.000001498352617
0.000000101845089
0.000000188665013
-0.000000212241005
0.000000496890550
0.000000006168059
0.000001041214432
0.000000442784142
-0.000000353441351
0.000000599658847
0.000000160194560
0.000001754547498
-0.000001443343308
0.000002135200020
-0.000001811878633
0.000002382908860
-0.000002922197609
0.000002364123702
-0.000001750007868
0.000002723642183
-0.000000493198684
0.000002335645831
0.000001558345843
0.000000132370644
0.000004305461061
-0.000003993103746
0.000007159033430
0.000001291859348
-0.000521267706063
-0.001545775216073
-0.001745755551383
-0.001885528326966
-0.002641702536494
-0.002535299630836
-0.001313273911364
-0.000919043319300
-0.000681825738866
-0.001006180886179
-0.003432254772633
-0.002567671006545
0.000314590055496
0.000649952096865
0.000796103500761
0.000735603214707
-0.001006496488117
-0.002808660967276
-0.002587854862213
-0.002395278541371
-0.004109104629606
-0.004446991253644
-0.003025680780411
-0.003776339814067
-0.004490624647588
-0.003779869992286
-0.003630013903603
-0.004221745301038
-0.005412537138909
-0.005980733782053
-0.007270389702171
-0.008754782378674
-0.008918226696551
-0.008832849562168
-0.007515765726566
-0.005313142668456
-0.006091495975852
-0.010542321018875
-0.013878629542887
-0.012107593007386
-0.009598538279533
-0.010368700139225
-0.009269556961954
-0.006103865802288
-0.004807259887457
-0.004336910322309
-0.005198058672249
-0.007831412367523
-0.009376616217196
-0.008422383107245
-0.007099343463778
-0.007202893961221
-0.006280735600740
-0.005036415066570
-0.004794459324330
-0.003799517173320
-0.003549872431904
-0.003050066297874
-0.002595979021862
-0.003705099457875
-0.003052225569263
-0.002028921619058
-0.002127944724634
-0.001890328363515
-0.001716173253953
-0.001363040762953
-0.001156925689429
-0.000681323290337
-0.000524133385625
-0.000798793334980
-0.000590533891227
-0.000031356044929
0.001481669372879
0.001961930189282
0.001914054970257
0.003532240400091
0.005747378803790
0.007373776752502
0.007409208454192
0.006376186851412
0.005431259516627
0.007654975634068
0.011072256602347
0.011308528482914
0.011420698836446
0.010946865193546
0.011070965789258
0.013565066270530
0.013852103613317
0.012645266950130
0.013113863766193
0.012880300171673
0.009996348991990
0.010824650526047
0.014500851742923
0.014140281826258
0.011649481020868
0.010391484014690
0.010567647404969
0.008769672363997
0.005152863450348
0.001828954322264
-0.001164207118563
-0.003636075183749
-0.005167698021978
-0.005323399323970
-0.002638766774908
0.000492060731631
0.001156870974228
0.001426900038496
0.000568939780351
0.000536975974683
0.000909374852199
0.001307302620262
0.001718733459711
0.000324529624777
-0.000339692574926
0.000051334798627
0.000187108031241
-0.000426152342698
-0.000070014793891
0.000024056203983
-0.000202297058422
-0.000261531211436
-0.000843159796204
-0.000344060972566
-0.000234929684666
-0.000502720475197
-0.001211329014041
-0.002211225219071
-0.001833585090935
-0.000375492643798
-0.000067893466621
-0.001443122513592
-0.000227383890888
0.001410428783856
0.002050002105534
0.004223482683301
0.005986590404063
0.006897835526615
0.006906146649271
0.006661550607532
0.005345866084099
0.003518407465890
0.002889402210712
0.002989801345393
0.003117959713563
0.003259450895712
0.003487503621727
0.002493934007362
0.002388614695519
0.002115079900250
0.001486973487772
0.001644487143494
0.001076006912626
0.001374647719786
0.001288101891987
0.000640545214992
0.000759908289183
0.000774514046498
0.000397501193220
0.001684296992607
0.003893515793607
0.004127232357860
0.003586871782318
0.002982575912029
0.003012467641383
0.002883079927415
0.001623143325560
-0.001633204403333
-0.004821953829378
-0.004656406119466
-0.003994327504188
-0.003875788301229
-0.004109076689929
-0.004725081846118
-0.004038767889142
-0.000187714074855
0.001231006928720
-0.001967489952222
-0.003578101750463
-0.003902835305780
-0.003784502856433
-0.003475343110040
-0.002795250387862
-0.002439346630126
-0.002493067411706
-0.001666504424065
0.000778988993261
0.003322838805616
0.003072251565754
0.003252054564655
0.003301356919110
0.002835459075868
0.002811969490722
0.002293244004250
0.002373199444264
0.002266460098326
0.001346967299469
-0.000551340344828
-0.000078820194176
0.000937978969887
0.000902948377188
0.001551076187752
0.000444865727331
-0.002564220223576
-0.005829313304275
-0.006047539878637
-0.005686439108104
-0.005303631536663
-0.005247807130218
-0.006073971744627
-0.004650999326259
-0.004030277952552
-0.004927298054099
-0.004349091555923
-0.002178438939154
-0.001656071166508
-0.001995291560888
-0.000796063744929
0.000707816681825
0.000911530922167
0.001137958490290
0.000658963806927
0.000238788357819
0.000943945138715
-0.000082640632172
-0.001676398911513
-0.002540847286582
-0.001708655850962
-0.000998550793156
-0.000737097288948
-0.000647433626000
-0.000869698647875
-0.000875233381521
-0.000774262880441
-0.000759052170906
-0.001787664717995
-0.002306500449777
-0.002157135633752
-0.001100163673982
0.000043504514906
-0.000273500219919
-0.001696585211903
-0.002805358497426
-0.003671734360978
-0.003530664835125
-0.002812261926010
-0.003212802577764
-0.003200473962352
-0.003116719424725
-0.002241785172373
-0.001439050654881
-0.002007545903325
-0.002408837433904
-0.002817573957145
-0.003125418676063
-0.003099055960774
-0.003203341271728
-0.005107820965350
-0.007806763518602
-0.008207041770220
-0.007665160577744
-0.007796712219715
-0.006941156927496
-0.005889546591789
-0.005902298726141
-0.005584788043052
-0.005058186594397
-0.004343687091023
-0.003985736519098
-0.005222983192652
-0.008391867391765
-0.010545807890594
-0.009687571786344
-0.009270984679461
-0.009138908237219
-0.007744878064841
-0.007523645181209
-0.007427019998431
-0.007178231142461
-0.006766119040549
-0.004512433428317
-0.003473168006167
-0.001762736821547
0.000319159269566
0.000928532797843
0.001079562003724
-0.000214214465814
0.001258325763047
0.004351496696472
0.005083247553557
0.004386872053146
0.003897522808984
0.004353968426585
0.003636316861957
0.003005337435752
0.003662548260763
0.003388803219423
0.001695384620689
0.000910274626222
0.001848978572525
0.000943081220612
-0.000043781255954
0.000593517965171
0.001072874059901
0.001119213178754
0.000290590833174
0.000220636633458
0.000344748870702
-0.000676552124787
-0.003101947251707
-0.005443551577628
-0.005115803331137
-0.003907185979187
-0.003398709930480
-0.002864858368412
-0.002657063072547
-0.002791579812765
-0.002752303844318
-0.002364954212680
-0.002380363410339
-0.001417379709892
0.000282392924419
0.001861124532297
0.004401800688356
0.005837435368448
0.004844401497394
0.001296305796131
-0.001045654760674
-0.002109553199261
-0.002142427954823
-0.000167062040418
0.000344243104337
-0.000365782005247
-0.001495143980719
-0.001139316358604
0.000565525027923
0.001396156963892
0.000666011765134
0.001636371598579
0.004742593038827
0.005815001204610
0.006152431946248
0.006244989112020
0.005192919634283
0.004191215615720
0.005022886209190
0.005895043723285
0.004616337362677
0.003513122210279
0.002836795523763
0.002774729859084
0.003299205098301
0.003389084246010
0.002971630310640
0.002305315341800
0.002583082765341
0.002993054920807
0.002777843270451
0.001990590011701
0.001848065410741
0.001596503541805
0.001165412715636
0.001338876434602
0.000856484752148
0.000733964494430
0.000655442592688
0.000635983364191
0.000868147006258
0.001033145817928
0.000935242045671
0.000567085458897
-0.001838844618760
-0.004471287131310
-0.004712163470685
-0.004796804860234
-0.002517586806789
0.000558494939469
0.001969256903976
0.002579988678917
0.002694219816476
0.002375102834776
0.001741478103213
0.002377395983785
0.002479180693626
0.001416378188878
0.001391406636685
0.001369994366542
0.000732499524020
0.001579175703228
0.002270852681249
0.002359349979088
0.002463466254994
0.001570804975927
0.000746018486097
0.000610684859566
0.001204605796374
0.001244060462341
0.001401607063599
0.002188160084188
0.001725373440422
0.001017595175654
0.000781507871579
0.000562504632398
0.000796371721663
0.002339206403121
0.005483293905854
0.006878639571369
0.006408809218556
0.008459124714136
0.010375761426985
0.009658054448664
0.009042568504810
0.010965050198138
0.013885054737329
0.012772964313626
0.010399818420410
0.009884955361485
0.009557888843119
0.009070850908756
0.008618266321719
0.008552093990147
0.008372621610761
0.007812556810677
0.007287849206477
0.006849147379398
0.008678373880684
0.011577932164073
0.012048172764480
0.012045442126691
0.010435191914439
0.008247552439570
0.006607727147639
0.005420446861535
0.005766134243459
0.005817545112222
0.006027827970684
0.006644305307418
0.006993323564529
0.005851839203387
0.005405291914940
0.005503382068127
0.002333596581593
-0.000687656633090
-0.002341467421502
-0.004755014088005
-0.004715709481388
-0.003842361271381
-0.003517901990563
-0.002110395114869
-0.001776360440999
-0.001801011268981
-0.000794929044787
0.001487622386776
0.002479730406776
0.002091294620186
0.002490732586011
0.003501591039822
0.004014680627733
0.003329900559038
0.003491070820019
0.003863870864734
0.004373665433377
0.003719630651176
0.003679348854348
0.004729449748993
0.003847044426948
0.004422542173415
0.004930818919092
0.004560663364828
0.005142504815012
0.005699627101421
