

================================================================
== Vivado HLS Report for 'ofdm_receiver'
================================================================
* Date:           Tue Nov 28 21:28:46 2017

* Version:        2015.4 (Build 1412921 on Wed Nov 18 09:58:55 AM 2015)
* Project:        hls_ofdm_rx
* Solution:       solution1
* Product family: zynq
* Target device:  xc7z020clg484-1


================================================================
== Performance Estimates
================================================================
+ Timing (ns): 
    * Summary: 
    +--------+-------+----------+------------+
    |  Clock | Target| Estimated| Uncertainty|
    +--------+-------+----------+------------+
    |ap_clk  |  10.00|      8.63|        1.25|
    +--------+-------+----------+------------+

+ Latency (clock cycles): 
    * Summary: 
    +-------+-------+------+------+----------+
    |    Latency    |   Interval  | Pipeline |
    |  min  |  max  |  min |  max |   Type   |
    +-------+-------+------+------+----------+
    |  11967|  11967|  2051|  2051| dataflow |
    +-------+-------+------+------+----------+

    + Detail: 
        * Instance: 
        +----------------------------------------------------+-----------------------------------------+------+------+------+------+----------+
        |                                                    |                                         |   Latency   |   Interval  | Pipeline |
        |                      Instance                      |                  Module                 |  min |  max |  min |  max |   Type   |
        +----------------------------------------------------+-----------------------------------------+------+------+------+------+----------+
        |grp_ofdm_receiver_Loop_read_rx_input_proc_fu_131    |ofdm_receiver_Loop_read_rx_input_proc    |  2050|  2050|  2050|  2050|   none   |
        |grp_ofdm_receiver_fft_fu_78                         |ofdm_receiver_fft                        |  8372|  8372|   786|   786| dataflow |
        |grp_ofdm_receiver_qpsk_decode_fu_122                |ofdm_receiver_qpsk_decode                |   516|   516|   516|   516|   none   |
        |grp_ofdm_receiver_Loop_write_rx_output_proc_fu_141  |ofdm_receiver_Loop_write_rx_output_proc  |  1026|  1026|  1026|  1026|   none   |
        +----------------------------------------------------+-----------------------------------------+------+------+------+------+----------+

        * Loop: 
        N/A



================================================================
== Utilization Estimates
================================================================
* Summary: 
+-----------------+---------+-------+--------+-------+
|       Name      | BRAM_18K| DSP48E|   FF   |  LUT  |
+-----------------+---------+-------+--------+-------+
|DSP              |        -|      -|       -|      -|
|Expression       |        -|      -|       0|      2|
|FIFO             |        -|      -|       -|      -|
|Instance         |       96|    164|   21786|  34810|
|Memory           |       18|      -|       0|      0|
|Multiplexer      |        -|      -|       -|      8|
|Register         |        -|      -|       6|      -|
+-----------------+---------+-------+--------+-------+
|Total            |      114|    164|   21792|  34820|
+-----------------+---------+-------+--------+-------+
|Available        |      280|    220|  106400|  53200|
+-----------------+---------+-------+--------+-------+
|Utilization (%)  |       40|     74|      20|     65|
+-----------------+---------+-------+--------+-------+

+ Detail: 
    * Instance: 
    +--------------------------------------------+-----------------------------------------+---------+-------+-------+-------+
    |                  Instance                  |                  Module                 | BRAM_18K| DSP48E|   FF  |  LUT  |
    +--------------------------------------------+-----------------------------------------+---------+-------+-------+-------+
    |ofdm_receiver_Loop_read_rx_input_proc_U0    |ofdm_receiver_Loop_read_rx_input_proc    |        0|      0|    199|    365|
    |ofdm_receiver_Loop_write_rx_output_proc_U0  |ofdm_receiver_Loop_write_rx_output_proc  |        0|      0|     46|    133|
    |ofdm_receiver_fft_U0                        |ofdm_receiver_fft                        |       96|    164|  21083|  33114|
    |ofdm_receiver_qpsk_decode_U0                |ofdm_receiver_qpsk_decode                |        0|      0|    458|   1198|
    +--------------------------------------------+-----------------------------------------+---------+-------+-------+-------+
    |Total                                       |                                         |       96|    164|  21786|  34810|
    +--------------------------------------------+-----------------------------------------+---------+-------+-------+-------+

    * DSP48: 
    N/A

    * Memory: 
    +----------+----------------------+---------+---+----+------+-----+------+-------------+
    |  Memory  |        Module        | BRAM_18K| FF| LUT| Words| Bits| Banks| W*Bits*Banks|
    +----------+----------------------+---------+---+----+------+-----+------+-------------+
    |dout_U    |ofdm_receiver_dout    |        2|  0|   0|  1024|    2|     2|         4096|
    |xi_U      |ofdm_receiver_xi      |        4|  0|   0|  1024|   32|     2|        65536|
    |xr_U      |ofdm_receiver_xi      |        4|  0|   0|  1024|   32|     2|        65536|
    |xr_out_U  |ofdm_receiver_xr_out  |        4|  0|   0|  1024|   32|     2|        65536|
    |xi_out_U  |ofdm_receiver_xr_out  |        4|  0|   0|  1024|   32|     2|        65536|
    +----------+----------------------+---------+---+----+------+-----+------+-------------+
    |Total     |                      |       18|  0|   0|  5120|  130|    10|       266240|
    +----------+----------------------+---------+---+----+------+-----+------+-------------+

    * FIFO: 
    N/A

    * Expression: 
    +---------------------------------------+----------+-------+---+----+------------+------------+
    |             Variable Name             | Operation| DSP48E| FF| LUT| Bitwidth P0| Bitwidth P1|
    +---------------------------------------+----------+-------+---+----+------------+------------+
    |ofdm_receiver_fft_U0_ap_start          |    and   |      0|  0|   1|           1|           1|
    |ofdm_receiver_qpsk_decode_U0_ap_start  |    and   |      0|  0|   1|           1|           1|
    +---------------------------------------+----------+-------+---+----+------------+------------+
    |Total                                  |          |      0|  0|   2|           2|           2|
    +---------------------------------------+----------+-------+---+----+------------+------------+

    * Multiplexer: 
    +----------------------------------------------------------------------+----+-----------+-----+-----------+
    |                                 Name                                 | LUT| Input Size| Bits| Total Bits|
    +----------------------------------------------------------------------+----+-----------+-----+-----------+
    |ap_chn_write_ofdm_receiver_Loop_read_rx_input_proc_U0_xi              |   1|          2|    1|          2|
    |ap_chn_write_ofdm_receiver_Loop_read_rx_input_proc_U0_xr              |   1|          2|    1|          2|
    |ap_chn_write_ofdm_receiver_fft_U0_xi_out                              |   1|          2|    1|          2|
    |ap_chn_write_ofdm_receiver_fft_U0_xr_out                              |   1|          2|    1|          2|
    |ap_sig_ready_ofdm_receiver_Loop_read_rx_input_proc_U0_xi_pipo_status  |   1|          2|    1|          2|
    |ap_sig_ready_ofdm_receiver_Loop_read_rx_input_proc_U0_xr_pipo_status  |   1|          2|    1|          2|
    |ap_sig_ready_ofdm_receiver_fft_U0_OUT_I_pipo_status                   |   1|          2|    1|          2|
    |ap_sig_ready_ofdm_receiver_fft_U0_OUT_R_pipo_status                   |   1|          2|    1|          2|
    +----------------------------------------------------------------------+----+-----------+-----+-----------+
    |Total                                                                 |   8|         16|    8|         16|
    +----------------------------------------------------------------------+----+-----------+-----+-----------+

    * Register: 
    +----------------------------------------------------------------------+---+----+-----+-----------+
    |                                 Name                                 | FF| LUT| Bits| Const Bits|
    +----------------------------------------------------------------------+---+----+-----+-----------+
    |ap_CS                                                                 |  1|   0|    1|          0|
    |ap_reg_ready_ofdm_receiver_Loop_read_rx_input_proc_U0_xi_pipo_status  |  1|   0|    1|          0|
    |ap_reg_ready_ofdm_receiver_Loop_read_rx_input_proc_U0_xr_pipo_status  |  1|   0|    1|          0|
    |ap_reg_ready_ofdm_receiver_fft_U0_OUT_I_pipo_status                   |  1|   0|    1|          0|
    |ap_reg_ready_ofdm_receiver_fft_U0_OUT_R_pipo_status                   |  1|   0|    1|          0|
    |ofdm_receiver_Loop_read_rx_input_proc_U0_ap_start                     |  1|   0|    1|          0|
    +----------------------------------------------------------------------+---+----+-----+-----------+
    |Total                                                                 |  6|   0|    6|          0|
    +----------------------------------------------------------------------+---+----+-----+-----------+



================================================================
== Interface
================================================================
* Summary: 
+---------------+-----+-----+--------------+---------------+--------------+
|   RTL Ports   | Dir | Bits|   Protocol   | Source Object |    C Type    |
+---------------+-----+-----+--------------+---------------+--------------+
|ap_clk         |  in |    1| ap_ctrl_none | ofdm_receiver | return value |
|ap_rst         |  in |    1| ap_ctrl_none | ofdm_receiver | return value |
|inptr_dout     |  in |   32|    ap_fifo   |     inptr     |    pointer   |
|inptr_empty_n  |  in |    1|    ap_fifo   |     inptr     |    pointer   |
|inptr_read     | out |    1|    ap_fifo   |     inptr     |    pointer   |
|outptr_din     | out |   32|    ap_fifo   |     outptr    |    pointer   |
|outptr_full_n  |  in |    1|    ap_fifo   |     outptr    |    pointer   |
|outptr_write   | out |    1|    ap_fifo   |     outptr    |    pointer   |
+---------------+-----+-----+--------------+---------------+--------------+

