

================================================================
== Vivado HLS Report for 'phasedetector_cordiccart2pol'
================================================================
* Date:           Sat Oct 21 23:45:32 2017

* Version:        2015.4 (Build 1412921 on Wed Nov 18 09:58:55 AM 2015)
* Project:        phasedetector
* Solution:       solution3
* Product family: zynq
* Target device:  xc7z020clg484-1


================================================================
== Performance Estimates
================================================================
+ Timing (ns): 
    * Summary: 
    +--------+-------+----------+------------+
    |  Clock | Target| Estimated| Uncertainty|
    +--------+-------+----------+------------+
    |ap_clk  |  10.00|      8.71|        1.25|
    +--------+-------+----------+------------+

+ Latency (clock cycles): 
    * Summary: 
    +-----+-----+-----+-----+----------+
    |  Latency  |  Interval | Pipeline |
    | min | max | min | max |   Type   |
    +-----+-----+-----+-----+----------+
    |   27|   27|    1|    1| function |
    +-----+-----+-----+-----+----------+

    + Detail: 
        * Instance: 
        N/A

        * Loop: 
        N/A



================================================================
== Utilization Estimates
================================================================
* Summary: 
+-----------------+---------+-------+--------+-------+
|       Name      | BRAM_18K| DSP48E|   FF   |  LUT  |
+-----------------+---------+-------+--------+-------+
|DSP              |        -|      1|       -|      -|
|Expression       |        -|      -|       0|   5708|
|FIFO             |        -|      -|       -|      -|
|Instance         |        -|      0|     880|   1384|
|Memory           |        -|      -|       -|      -|
|Multiplexer      |        -|      -|       -|      -|
|Register         |        -|      -|    1644|     74|
+-----------------+---------+-------+--------+-------+
|Total            |        0|      1|    2524|   7166|
+-----------------+---------+-------+--------+-------+
|Available        |      280|    220|  106400|  53200|
+-----------------+---------+-------+--------+-------+
|Utilization (%)  |        0|   ~0  |       2|     13|
+-----------------+---------+-------+--------+-------+

+ Detail: 
    * Instance: 
    +----------------------------------+-------------------------------+---------+-------+-----+-----+
    |             Instance             |             Module            | BRAM_18K| DSP48E|  FF | LUT |
    +----------------------------------+-------------------------------+---------+-------+-----+-----+
    |phasedetector_fpext_32ns_64_1_U8  |phasedetector_fpext_32ns_64_1  |        0|      0|  100|  138|
    |phasedetector_fpext_32ns_64_1_U9  |phasedetector_fpext_32ns_64_1  |        0|      0|  100|  138|
    |phasedetector_sitofp_32s_32_6_U6  |phasedetector_sitofp_32s_32_6  |        0|      0|  340|  554|
    |phasedetector_sitofp_64s_32_6_U7  |phasedetector_sitofp_64s_32_6  |        0|      0|  340|  554|
    +----------------------------------+-------------------------------+---------+-------+-----+-----+
    |Total                             |                               |        0|      0|  880| 1384|
    +----------------------------------+-------------------------------+---------+-------+-----+-----+

    * DSP48: 
    +-----------------------------------------+-------------------------------------+-----------+
    |                 Instance                |                Module               | Expression|
    +-----------------------------------------+-------------------------------------+-----------+
    |phasedetector_mul_mul_16ns_21s_37_1_U10  |phasedetector_mul_mul_16ns_21s_37_1  |  i0 * i1  |
    +-----------------------------------------+-------------------------------------+-----------+

    * Memory: 
    N/A

    * FIFO: 
    N/A

    * Expression: 
    +-------------------------------------+----------+-------+---+-----+------------+------------+
    |            Variable Name            | Operation| DSP48E| FF| LUT | Bitwidth P0| Bitwidth P1|
    +-------------------------------------+----------+-------+---+-----+------------+------------+
    |exp_V_14_fu_5045_p2                  |     +    |      0|  0|    8|           5|           8|
    |exp_V_15_fu_5086_p2                  |     +    |      0|  0|    8|           6|           8|
    |exp_V_8_fu_730_p2                    |     +    |      0|  0|    6|          11|          12|
    |exp_V_9_fu_1949_p2                   |     +    |      0|  0|    6|          11|          10|
    |exp_V_fu_392_p2                      |     +    |      0|  0|    6|          11|          12|
    |p_Val2_103_1_fu_2852_p2              |     +    |      0|  0|   22|          22|          22|
    |p_Val2_103_2_fu_3082_p2              |     +    |      0|  0|   22|          22|          22|
    |p_Val2_103_3_fu_3311_p2              |     +    |      0|  0|   22|          22|          22|
    |p_Val2_103_4_fu_3540_p2              |     +    |      0|  0|   22|          22|          22|
    |p_Val2_103_5_fu_3769_p2              |     +    |      0|  0|   22|          22|          22|
    |p_Val2_103_6_fu_3998_p2              |     +    |      0|  0|   22|          22|          22|
    |p_Val2_103_7_fu_4227_p2              |     +    |      0|  0|   22|          22|          22|
    |p_Val2_103_8_fu_4456_p2              |     +    |      0|  0|   22|          22|          22|
    |p_Val2_103_9_fu_4685_p2              |     +    |      0|  0|   22|          22|          22|
    |p_Val2_29_fu_1071_p2                 |     +    |      0|  0|   21|          21|          21|
    |p_Val2_33_fu_1287_p2                 |     +    |      0|  0|   21|          21|          21|
    |p_Val2_39_fu_2030_p2                 |     +    |      0|  0|   14|          14|          14|
    |p_Val2_42_fu_2631_p2                 |     +    |      0|  0|   22|          22|          22|
    |pos1_2_fu_930_p2                     |     +    |      0|  0|   12|           4|          12|
    |pos1_3_fu_2110_p2                    |     +    |      0|  0|    6|           2|           6|
    |pos1_fu_592_p2                       |     +    |      0|  0|   12|           4|          12|
    |pos2_2_fu_939_p2                     |     +    |      0|  0|   12|           4|          12|
    |pos2_3_fu_1935_p2                    |     +    |      0|  0|    6|           3|           6|
    |pos2_fu_601_p2                       |     +    |      0|  0|   12|           4|          12|
    |tmp_105_fu_837_p2                    |     +    |      0|  0|   12|           5|          12|
    |tmp_107_fu_908_p2                    |     +    |      0|  0|    6|          12|          12|
    |tmp_120_fu_1887_p2                   |     +    |      0|  0|    6|           5|           6|
    |tmp_130_fu_1917_p2                   |     +    |      0|  0|    6|           5|           6|
    |tmp_132_fu_2098_p2                   |     +    |      0|  0|    6|          12|           1|
    |tmp_70_fu_407_p2                     |     +    |      0|  0|   12|           5|          12|
    |tmp_80_fu_499_p2                     |     +    |      0|  0|   12|           5|          12|
    |tmp_82_fu_570_p2                     |     +    |      0|  0|    6|          12|          12|
    |tmp_95_fu_745_p2                     |     +    |      0|  0|   12|           5|          12|
    |F2_2_fu_386_p2                       |     -    |      0|  0|   12|          11|          12|
    |F2_3_fu_1875_p2                      |     -    |      0|  0|   11|          11|          10|
    |F2_fu_322_p2                         |     -    |      0|  0|   12|          11|          12|
    |man_V_12_fu_310_p2                   |     -    |      0|  0|   54|           1|          54|
    |man_V_15_fu_374_p2                   |     -    |      0|  0|   54|           1|          54|
    |mf6_1_fu_2884_p2                     |     -    |      0|  0|   20|           1|          20|
    |mf6_2_fu_3114_p2                     |     -    |      0|  0|   19|           1|          19|
    |mf6_3_fu_3343_p2                     |     -    |      0|  0|   18|           1|          18|
    |mf6_4_fu_3572_p2                     |     -    |      0|  0|   17|           1|          17|
    |mf6_5_fu_3801_p2                     |     -    |      0|  0|   16|           1|          16|
    |mf6_6_fu_4030_p2                     |     -    |      0|  0|   15|           1|          15|
    |mf6_7_fu_4259_p2                     |     -    |      0|  0|   14|           1|          14|
    |mf6_8_fu_4488_p2                     |     -    |      0|  0|   13|           1|          13|
    |mf6_9_fu_4717_p2                     |     -    |      0|  0|   12|           1|          12|
    |mf6_fu_2663_p2                       |     -    |      0|  0|   21|           1|          21|
    |mf6_s_fu_4877_p2                     |     -    |      0|  0|   11|           1|          11|
    |mf_1_fu_2830_p2                      |     -    |      0|  0|   21|           1|          21|
    |mf_2_fu_3060_p2                      |     -    |      0|  0|   20|           1|          20|
    |mf_3_fu_3289_p2                      |     -    |      0|  0|   19|           1|          19|
    |mf_4_fu_3518_p2                      |     -    |      0|  0|   18|           1|          18|
    |mf_5_fu_3747_p2                      |     -    |      0|  0|   17|           1|          17|
    |mf_6_fu_3976_p2                      |     -    |      0|  0|   16|           1|          16|
    |mf_7_fu_4205_p2                      |     -    |      0|  0|   15|           1|          15|
    |mf_8_fu_4434_p2                      |     -    |      0|  0|   14|           1|          14|
    |mf_9_fu_4663_p2                      |     -    |      0|  0|   13|           1|          13|
    |mf_fu_2613_p2                        |     -    |      0|  0|   22|           1|          22|
    |p_Val2_108_1_fu_2906_p2              |     -    |      0|  0|   22|          22|          22|
    |p_Val2_108_2_fu_3136_p2              |     -    |      0|  0|   22|          22|          22|
    |p_Val2_108_3_fu_3365_p2              |     -    |      0|  0|   22|          22|          22|
    |p_Val2_108_4_fu_3594_p2              |     -    |      0|  0|   22|          22|          22|
    |p_Val2_108_5_fu_3823_p2              |     -    |      0|  0|   22|          22|          22|
    |p_Val2_108_6_fu_4052_p2              |     -    |      0|  0|   22|          22|          22|
    |p_Val2_108_7_fu_4281_p2              |     -    |      0|  0|   22|          22|          22|
    |p_Val2_108_8_fu_4510_p2              |     -    |      0|  0|   22|          22|          22|
    |p_Val2_108_9_fu_4739_p2              |     -    |      0|  0|   22|          22|          22|
    |p_Val2_108_s_fu_4899_p2              |     -    |      0|  0|   22|          22|          22|
    |p_Val2_112_1_fu_2950_p2              |     -    |      0|  0|   15|          15|          15|
    |p_Val2_112_2_fu_3179_p2              |     -    |      0|  0|   15|          15|          15|
    |p_Val2_112_3_fu_3408_p2              |     -    |      0|  0|   15|          15|          15|
    |p_Val2_112_4_fu_3637_p2              |     -    |      0|  0|   15|          15|          15|
    |p_Val2_112_5_fu_3866_p2              |     -    |      0|  0|   15|          15|          15|
    |p_Val2_112_6_fu_4095_p2              |     -    |      0|  0|   15|          15|          15|
    |p_Val2_112_7_fu_4324_p2              |     -    |      0|  0|   15|          15|          15|
    |p_Val2_112_8_fu_4553_p2              |     -    |      0|  0|   15|          15|          15|
    |p_Val2_112_9_fu_4776_p2              |     -    |      0|  0|   15|          15|          15|
    |p_Val2_112_s_fu_4942_p2              |     -    |      0|  0|   15|          15|          15|
    |p_Val2_44_fu_2681_p2                 |     -    |      0|  0|   22|          22|          22|
    |p_Val2_45_fu_2725_p2                 |     -    |      0|  0|   15|          15|          15|
    |tmp_117_fu_2450_p2                   |     -    |      0|  0|   21|           1|          21|
    |tmp_118_fu_1775_p2                   |     -    |      0|  0|   22|           1|          22|
    |tmp_121_fu_1893_p2                   |     -    |      0|  0|    6|           4|           6|
    |tmp_71_fu_412_p2                     |     -    |      0|  0|   12|           4|          12|
    |tmp_96_fu_750_p2                     |     -    |      0|  0|   12|           4|          12|
    |Range1_all_ones_2_i6_fu_1194_p3      |  Select  |      0|  0|    1|           1|           1|
    |Range1_all_ones_2_i7_fu_2318_p3      |  Select  |      0|  0|    1|           1|           1|
    |Range1_all_ones_2_i_fu_1410_p3       |  Select  |      0|  0|    1|           1|           1|
    |Range1_all_zeros_2_i6_fu_1209_p3     |  Select  |      0|  0|    1|           1|           1|
    |Range1_all_zeros_2_i7_fu_2332_p3     |  Select  |      0|  0|    1|           1|           1|
    |Range1_all_zeros_2_i_fu_1425_p3      |  Select  |      0|  0|    1|           1|           1|
    |Range2_all_ones_1_i6_fu_1157_p3      |  Select  |      0|  0|    1|           1|           1|
    |Range2_all_ones_1_i7_fu_2204_p3      |  Select  |      0|  0|    1|           1|           1|
    |Range2_all_ones_1_i_fu_1373_p3       |  Select  |      0|  0|    1|           1|           1|
    |deleted_ones_2_fu_1481_p3            |  Select  |      0|  0|    1|           1|           1|
    |deleted_ones_3_fu_2379_p3            |  Select  |      0|  0|    1|           1|           1|
    |deleted_ones_fu_1265_p3              |  Select  |      0|  0|    1|           1|           1|
    |deleted_zeros_2_fu_1433_p3           |  Select  |      0|  0|    1|           1|           1|
    |deleted_zeros_3_fu_2340_p3           |  Select  |      0|  0|    1|           1|           1|
    |deleted_zeros_fu_1217_p3             |  Select  |      0|  0|    1|           1|           1|
    |ireg_V_3_fu_1837_p3                  |  Select  |      0|  0|   64|           1|          64|
    |p_1_fu_802_p3                        |  Select  |      0|  0|    2|           1|           2|
    |p_2_fu_1985_p3                       |  Select  |      0|  0|    2|           1|           2|
    |p_Repl2_6_fu_1640_p3                 |  Select  |      0|  0|    1|           1|           1|
    |p_Repl2_8_fu_2425_p3                 |  Select  |      0|  0|    1|           1|           1|
    |p_Repl2_s_fu_1517_p3                 |  Select  |      0|  0|    1|           1|           1|
    |p_Val2_102_1_fu_2836_p3              |  Select  |      0|  0|   21|           1|          21|
    |p_Val2_102_2_fu_3066_p3              |  Select  |      0|  0|   20|           1|          20|
    |p_Val2_102_3_fu_3295_p3              |  Select  |      0|  0|   19|           1|          19|
    |p_Val2_102_4_fu_3524_p3              |  Select  |      0|  0|   18|           1|          18|
    |p_Val2_102_5_fu_3753_p3              |  Select  |      0|  0|   17|           1|          17|
    |p_Val2_102_6_fu_3982_p3              |  Select  |      0|  0|   16|           1|          16|
    |p_Val2_102_7_fu_4211_p3              |  Select  |      0|  0|   15|           1|          15|
    |p_Val2_102_8_fu_4440_p3              |  Select  |      0|  0|   14|           1|          14|
    |p_Val2_102_9_fu_4669_p3              |  Select  |      0|  0|   13|           1|          13|
    |p_Val2_107_1_fu_2890_p3              |  Select  |      0|  0|   20|           1|          20|
    |p_Val2_107_2_fu_3120_p3              |  Select  |      0|  0|   19|           1|          19|
    |p_Val2_107_3_fu_3349_p3              |  Select  |      0|  0|   18|           1|          18|
    |p_Val2_107_4_fu_3578_p3              |  Select  |      0|  0|   17|           1|          17|
    |p_Val2_107_5_fu_3807_p3              |  Select  |      0|  0|   16|           1|          16|
    |p_Val2_107_6_fu_4036_p3              |  Select  |      0|  0|   15|           1|          15|
    |p_Val2_107_7_fu_4265_p3              |  Select  |      0|  0|   14|           1|          14|
    |p_Val2_107_8_fu_4494_p3              |  Select  |      0|  0|   13|           1|          13|
    |p_Val2_107_9_fu_4723_p3              |  Select  |      0|  0|   12|           1|          12|
    |p_Val2_107_s_fu_4883_p3              |  Select  |      0|  0|   11|           1|          11|
    |p_Val2_110_ph_fu_2595_p3             |  Select  |      0|  0|   14|           1|          14|
    |p_Val2_28_fu_485_p3                  |  Select  |      0|  0|   21|           1|          21|
    |p_Val2_30_fu_1113_p3                 |  Select  |      0|  0|   21|           1|          21|
    |p_Val2_32_fu_823_p3                  |  Select  |      0|  0|   21|           1|          21|
    |p_Val2_34_fu_1329_p3                 |  Select  |      0|  0|   21|           1|          21|
    |p_Val2_35_fu_1781_p3                 |  Select  |      0|  0|   22|           1|          22|
    |p_Val2_38_fu_2005_p3                 |  Select  |      0|  0|   14|           1|          14|
    |p_Val2_41_fu_2266_p3                 |  Select  |      0|  0|   14|           1|          14|
    |p_Val2_43_fu_2669_p3                 |  Select  |      0|  0|   21|           1|          21|
    |p_Val2_53_fu_397_p3                  |  Select  |      0|  0|   54|           1|          54|
    |p_Val2_54_fu_735_p3                  |  Select  |      0|  0|   54|           1|          54|
    |p_Val2_55_fu_1867_p3                 |  Select  |      0|  0|   54|           1|          54|
    |p_Val2_s_21_fu_2619_p3               |  Select  |      0|  0|   22|           1|          22|
    |p_Val2_s_fu_2455_p3                  |  Select  |      0|  0|   21|           1|          21|
    |p_s_fu_464_p3                        |  Select  |      0|  0|    2|           1|           2|
    |p_theta_V_1_1_fu_2992_p3             |  Select  |      0|  0|   14|           1|          14|
    |p_theta_V_1_2_fu_3221_p3             |  Select  |      0|  0|   14|           1|          14|
    |p_theta_V_1_3_fu_3450_p3             |  Select  |      0|  0|   14|           1|          14|
    |p_theta_V_1_4_fu_3679_p3             |  Select  |      0|  0|   14|           1|          14|
    |p_theta_V_1_5_fu_3908_p3             |  Select  |      0|  0|   14|           1|          14|
    |p_theta_V_1_6_fu_4137_p3             |  Select  |      0|  0|   14|           1|          14|
    |p_theta_V_1_7_fu_4366_p3             |  Select  |      0|  0|   14|           1|          14|
    |p_theta_V_1_8_fu_4595_p3             |  Select  |      0|  0|   14|           1|          14|
    |p_theta_V_1_9_fu_4818_p3             |  Select  |      0|  0|   14|           1|          14|
    |p_theta_V_1_fu_2791_p3               |  Select  |      0|  0|   14|           1|          14|
    |p_theta_V_1_s_fu_4984_p3             |  Select  |      0|  0|   14|           1|          14|
    |qb_2_fu_854_p3                       |  Select  |      0|  0|    1|           1|           1|
    |qb_3_fu_2013_p3                      |  Select  |      0|  0|    1|           1|           1|
    |qb_fu_516_p3                         |  Select  |      0|  0|    1|           1|           1|
    |r_write_assign_fu_5108_p3            |  Select  |      0|  0|   32|           1|           1|
    |sel_tmp35_fu_1188_p3                 |  Select  |      0|  0|    1|           1|           1|
    |sel_tmp39_fu_1202_p3                 |  Select  |      0|  0|    1|           1|           1|
    |sel_tmp45_fu_1583_p3                 |  Select  |      0|  0|   21|           1|           1|
    |sel_tmp46_fu_1593_p3                 |  Select  |      0|  0|   21|           1|          21|
    |sel_tmp49_fu_869_p3                  |  Select  |      0|  0|   21|           1|          21|
    |sel_tmp4_fu_1088_p3                  |  Select  |      0|  0|   21|           1|          21|
    |sel_tmp53_fu_1304_p3                 |  Select  |      0|  0|   21|           1|          21|
    |sel_tmp56_fu_1321_p3                 |  Select  |      0|  0|   21|           1|          21|
    |sel_tmp61_fu_1404_p3                 |  Select  |      0|  0|    1|           1|           1|
    |sel_tmp62_fu_1418_p3                 |  Select  |      0|  0|    1|           1|           1|
    |sel_tmp66_fu_1715_p3                 |  Select  |      0|  0|   21|           1|           1|
    |sel_tmp67_fu_1725_p3                 |  Select  |      0|  0|   21|           1|          21|
    |sel_tmp70_fu_2044_p3                 |  Select  |      0|  0|   14|           1|          14|
    |sel_tmp74_fu_2255_p3                 |  Select  |      0|  0|   14|           1|          14|
    |sel_tmp77_fu_2260_p3                 |  Select  |      0|  0|   14|           1|          14|
    |sel_tmp82_fu_2313_p3                 |  Select  |      0|  0|    1|           1|           1|
    |sel_tmp83_fu_2326_p3                 |  Select  |      0|  0|    1|           1|           1|
    |sel_tmp90_fu_2582_p3                 |  Select  |      0|  0|   14|           1|          14|
    |sel_tmp91_fu_2588_p3                 |  Select  |      0|  0|   14|           1|          14|
    |sel_tmp9_fu_1105_p3                  |  Select  |      0|  0|   21|           1|          21|
    |sel_tmp_fu_531_p3                    |  Select  |      0|  0|   21|           1|          21|
    |sh_amt_2_fu_755_p3                   |  Select  |      0|  0|   12|           1|          12|
    |sh_amt_3_fu_1899_p3                  |  Select  |      0|  0|    7|           1|           6|
    |sh_amt_fu_417_p3                     |  Select  |      0|  0|   12|           1|          12|
    |theta_write_assign_fu_5066_p3        |  Select  |      0|  0|   32|           1|           1|
    |tmp281_cast_cast_fu_562_p3           |  Select  |      0|  0|    2|           1|           2|
    |tmp287_cast_cast_fu_900_p3           |  Select  |      0|  0|    2|           1|           2|
    |tmp293_cast_cast_fu_2091_p3          |  Select  |      0|  0|    2|           1|           2|
    |tmp_412_cast_cast_fu_2717_p3         |  Select  |      0|  0|   12|           1|          11|
    |tmp_524_1_cast_cast_fu_2942_p3       |  Select  |      0|  0|   11|           1|          10|
    |tmp_524_2_cast_cast_fu_3171_p3       |  Select  |      0|  0|   10|           1|           9|
    |tmp_524_3_cast_cast_fu_3400_p3       |  Select  |      0|  0|    9|           1|           8|
    |tmp_524_4_cast_cast_fu_3629_p3       |  Select  |      0|  0|    9|           1|           8|
    |tmp_524_5_cast_cast_fu_3858_p3       |  Select  |      0|  0|    8|           1|           7|
    |tmp_524_6_cast_cast_fu_4087_p3       |  Select  |      0|  0|    7|           1|           6|
    |tmp_524_7_cast_cast_fu_4316_p3       |  Select  |      0|  0|    6|           1|           5|
    |tmp_524_8_cast_cast_fu_4545_p3       |  Select  |      0|  0|    5|           1|           4|
    |tmp_524_9_cast_cast_fu_4768_p3       |  Select  |      0|  0|    4|           1|           3|
    |tmp_524_cast_cast_fu_4934_p3         |  Select  |      0|  0|    3|           1|           2|
    |x_V_1_fu_2479_p3                     |  Select  |      0|  0|   21|           1|          21|
    |x_V_2_fu_2550_p3                     |  Select  |      0|  0|   21|           1|          21|
    |x_V_3_fu_2556_p3                     |  Select  |      0|  0|   21|           1|          21|
    |x_V_4_fu_2577_p3                     |  Select  |      0|  0|   21|           1|          21|
    |x_V_fu_1701_p3                       |  Select  |      0|  0|   21|           1|          21|
    |x_next_V_1_fu_3022_p3                |  Select  |      0|  0|   21|           1|          21|
    |x_next_V_2_fu_3251_p3                |  Select  |      0|  0|   21|           1|          21|
    |x_next_V_3_fu_3480_p3                |  Select  |      0|  0|   21|           1|          21|
    |x_next_V_4_fu_3709_p3                |  Select  |      0|  0|   21|           1|          21|
    |x_next_V_5_fu_3938_p3                |  Select  |      0|  0|   21|           1|          21|
    |x_next_V_6_fu_4167_p3                |  Select  |      0|  0|   21|           1|          21|
    |x_next_V_7_fu_4396_p3                |  Select  |      0|  0|   21|           1|          21|
    |x_next_V_8_fu_4625_p3                |  Select  |      0|  0|   21|           1|          21|
    |x_next_V_9_fu_4852_p3                |  Select  |      0|  0|   21|           1|          21|
    |x_next_V_fu_2773_p3                  |  Select  |      0|  0|   21|           1|          21|
    |x_next_V_s_fu_5000_p3                |  Select  |      0|  0|   21|           1|          21|
    |y_V_1_fu_1823_p3                     |  Select  |      0|  0|   21|           1|          21|
    |y_V_2_fu_2518_p3                     |  Select  |      0|  0|   21|           1|          21|
    |y_V_3_fu_2533_p3                     |  Select  |      0|  0|   21|           1|          21|
    |y_V_4_fu_2572_p3                     |  Select  |      0|  0|   21|           1|          21|
    |y_V_fu_1747_p3                       |  Select  |      0|  0|   21|           1|          21|
    |y_next_V_1_fu_3008_p3                |  Select  |      0|  0|   21|           1|          21|
    |y_next_V_2_fu_3237_p3                |  Select  |      0|  0|   21|           1|          21|
    |y_next_V_3_fu_3466_p3                |  Select  |      0|  0|   21|           1|          21|
    |y_next_V_4_fu_3695_p3                |  Select  |      0|  0|   21|           1|          21|
    |y_next_V_5_fu_3924_p3                |  Select  |      0|  0|   21|           1|          21|
    |y_next_V_6_fu_4153_p3                |  Select  |      0|  0|   21|           1|          21|
    |y_next_V_7_fu_4382_p3                |  Select  |      0|  0|   21|           1|          21|
    |y_next_V_8_fu_4611_p3                |  Select  |      0|  0|   21|           1|          21|
    |y_next_V_9_fu_4834_p3                |  Select  |      0|  0|   21|           1|          21|
    |y_next_V_fu_2759_p3                  |  Select  |      0|  0|   21|           1|          21|
    |Range1_all_ones_2_i6_18_fu_1273_p2   |    and   |      0|  0|    1|           1|           1|
    |Range1_all_ones_2_i7_20_fu_2387_p2   |    and   |      0|  0|    1|           1|           1|
    |Range1_all_ones_2_i_19_fu_1489_p2    |    and   |      0|  0|    1|           1|           1|
    |Range1_all_ones_2_mux_i6_fu_1254_p2  |    and   |      0|  0|    1|           1|           1|
    |Range1_all_ones_2_mux_i7_fu_2368_p2  |    and   |      0|  0|    1|           1|           1|
    |Range1_all_ones_2_mux_i_fu_1470_p2   |    and   |      0|  0|    1|           1|           1|
    |Range1_all_ones_3_fu_1383_p2         |    and   |      0|  0|    1|           1|           1|
    |Range1_all_ones_4_fu_2299_p2         |    and   |      0|  0|    1|           1|           1|
    |Range1_all_ones_5_fu_1148_p2         |    and   |      0|  0|    1|           1|           1|
    |Range1_all_ones_6_fu_1364_p2         |    and   |      0|  0|    1|           1|           1|
    |Range1_all_ones_7_fu_2161_p2         |    and   |      0|  0|    1|           1|           1|
    |Range1_all_ones_fu_1167_p2           |    and   |      0|  0|    1|           1|           1|
    |brmerge121_demorgan_i6_fu_1551_p2    |    and   |      0|  0|    1|           1|           1|
    |brmerge121_demorgan_i7_fu_2444_p2    |    and   |      0|  0|    1|           1|           1|
    |brmerge121_demorgan_i_fu_1674_p2     |    and   |      0|  0|    1|           1|           1|
    |carry_1_i6_fu_1130_p2                |    and   |      0|  0|    1|           1|           1|
    |carry_1_i7_fu_2282_p2                |    and   |      0|  0|    1|           1|           1|
    |carry_1_i_fu_1346_p2                 |    and   |      0|  0|    1|           1|           1|
    |deleted_zeros_0_not_i6_fu_1530_p2    |    and   |      0|  0|    1|           1|           1|
    |deleted_zeros_0_not_i7_fu_2439_p2    |    and   |      0|  0|    1|           1|           1|
    |deleted_zeros_0_not_i_fu_1653_p2     |    and   |      0|  0|    1|           1|           1|
    |or_cond115_i6_fu_1153_p2             |    and   |      0|  0|    1|           1|           1|
    |or_cond115_i7_fu_2177_p2             |    and   |      0|  0|    1|           1|           1|
    |or_cond115_i_fu_1369_p2              |    and   |      0|  0|    1|           1|           1|
    |or_cond117_i6_fu_1163_p2             |    and   |      0|  0|    1|           1|           1|
    |or_cond117_i7_fu_2295_p2             |    and   |      0|  0|    1|           1|           1|
    |or_cond117_i_fu_1379_p2              |    and   |      0|  0|    1|           1|           1|
    |overflow_2_fu_1668_p2                |    and   |      0|  0|    1|           1|           1|
    |overflow_4_fu_2496_p2                |    and   |      0|  0|    1|           1|           1|
    |overflow_fu_1545_p2                  |    and   |      0|  0|    1|           1|           1|
    |p_122_i6_fu_1179_p2                  |    and   |      0|  0|    1|           1|           1|
    |p_122_i7_fu_2308_p2                  |    and   |      0|  0|    1|           1|           1|
    |p_122_i_fu_1395_p2                   |    and   |      0|  0|    1|           1|           1|
    |sel_tmp13_fu_556_p2                  |    and   |      0|  0|    1|           1|           1|
    |sel_tmp2_fu_545_p2                   |    and   |      0|  0|    1|           1|           1|
    |sel_tmp34_fu_716_p2                  |    and   |      0|  0|    1|           1|           1|
    |sel_tmp3_fu_1084_p2                  |    and   |      0|  0|    1|           1|           1|
    |sel_tmp43_fu_1508_p2                 |    and   |      0|  0|    1|           1|           1|
    |sel_tmp44_fu_1513_p2                 |    and   |      0|  0|    1|           1|           1|
    |sel_tmp48_fu_1697_p2                 |    and   |      0|  0|    1|           1|           1|
    |sel_tmp51_fu_883_p2                  |    and   |      0|  0|    1|           1|           1|
    |sel_tmp52_fu_1300_p2                 |    and   |      0|  0|    1|           1|           1|
    |sel_tmp55_fu_1316_p2                 |    and   |      0|  0|    1|           1|           1|
    |sel_tmp58_fu_894_p2                  |    and   |      0|  0|    1|           1|           1|
    |sel_tmp60_fu_1054_p2                 |    and   |      0|  0|    1|           1|           1|
    |sel_tmp64_fu_1631_p2                 |    and   |      0|  0|    1|           1|           1|
    |sel_tmp65_fu_1636_p2                 |    and   |      0|  0|    1|           1|           1|
    |sel_tmp69_fu_1742_p2                 |    and   |      0|  0|    1|           1|           1|
    |sel_tmp72_fu_2057_p2                 |    and   |      0|  0|    1|           1|           1|
    |sel_tmp73_fu_2062_p2                 |    and   |      0|  0|    1|           1|           1|
    |sel_tmp76_fu_2074_p2                 |    and   |      0|  0|    1|           1|           1|
    |sel_tmp79_fu_2085_p2                 |    and   |      0|  0|    1|           1|           1|
    |sel_tmp81_fu_2235_p2                 |    and   |      0|  0|    1|           1|           1|
    |sel_tmp85_fu_2416_p2                 |    and   |      0|  0|    1|           1|           1|
    |sel_tmp86_fu_2421_p2                 |    and   |      0|  0|    1|           1|           1|
    |sel_tmp87_fu_2528_p2                 |    and   |      0|  0|    1|           1|           1|
    |sel_tmp89_fu_2545_p2                 |    and   |      0|  0|    1|           1|           1|
    |sel_tmp8_fu_1100_p2                  |    and   |      0|  0|    1|           1|           1|
    |tmp11_fu_1144_p2                     |    and   |      0|  0|    1|           1|           1|
    |tmp13_fu_1504_p2                     |    and   |      0|  0|    1|           1|           1|
    |tmp14_fu_1605_p2                     |    and   |      0|  0|    1|           1|           1|
    |tmp16_fu_1360_p2                     |    and   |      0|  0|    1|           1|           1|
    |tmp18_fu_1626_p2                     |    and   |      0|  0|    1|           1|           1|
    |tmp19_fu_1737_p2                     |    and   |      0|  0|    1|           1|           1|
    |tmp21_fu_2155_p2                     |    and   |      0|  0|    1|           1|           1|
    |tmp23_fu_2410_p2                     |    and   |      0|  0|    1|           1|           1|
    |tmp24_fu_2523_p2                     |    and   |      0|  0|    1|           1|           1|
    |underflow_2_fu_1685_p2               |    and   |      0|  0|    1|           1|           1|
    |underflow_3_fu_2507_p2               |    and   |      0|  0|    1|           1|           1|
    |underflow_fu_1562_p2                 |    and   |      0|  0|    1|           1|           1|
    |tmp_101_fu_792_p2                    |   ashr   |      0|  0|  160|          54|          54|
    |tmp_110_fu_972_p2                    |   ashr   |      0|  0|  160|          54|          54|
    |tmp_126_fu_1976_p2                   |   ashr   |      0|  0|  160|          54|          54|
    |tmp_76_fu_454_p2                     |   ashr   |      0|  0|  160|          54|          54|
    |tmp_85_fu_634_p2                     |   ashr   |      0|  0|  160|          54|          54|
    |QUAN_INC_2_fu_740_p2                 |   icmp   |      0|  0|    5|          12|           4|
    |QUAN_INC_3_fu_1881_p2                |   icmp   |      0|  0|    3|           6|           4|
    |QUAN_INC_fu_402_p2                   |   icmp   |      0|  0|    5|          12|           4|
    |Range1_all_zeros_4_fu_698_p2         |   icmp   |      0|  0|   19|          54|           1|
    |Range1_all_zeros_6_fu_1036_p2        |   icmp   |      0|  0|   19|          54|           1|
    |Range2_all_ones_2_fu_1018_p2         |   icmp   |      0|  0|   19|          54|          54|
    |Range2_all_ones_3_fu_2198_p2         |   icmp   |      0|  0|    1|           1|           1|
    |Range2_all_ones_fu_680_p2            |   icmp   |      0|  0|   19|          54|          54|
    |icmp2_fu_924_p2                      |   icmp   |      0|  0|    3|           9|           1|
    |icmp_fu_586_p2                       |   icmp   |      0|  0|    3|           9|           1|
    |sel_tmp12_fu_551_p2                  |   icmp   |      0|  0|    5|          12|           4|
    |sel_tmp57_fu_889_p2                  |   icmp   |      0|  0|    5|          12|           4|
    |sel_tmp78_fu_2080_p2                 |   icmp   |      0|  0|    3|           6|           4|
    |tmp_104_fu_831_p2                    |   icmp   |      0|  0|    5|          12|           6|
    |tmp_108_fu_948_p2                    |   icmp   |      0|  0|    5|          12|           6|
    |tmp_111_fu_996_p2                    |   icmp   |      0|  0|    5|          12|           6|
    |tmp_113_fu_1024_p2                   |   icmp   |      0|  0|   19|          54|           1|
    |tmp_114_fu_1030_p2                   |   icmp   |      0|  0|    5|          12|           6|
    |tmp_122_fu_1957_p2                   |   icmp   |      0|  0|    3|           6|           4|
    |tmp_123_fu_1962_p2                   |   icmp   |      0|  0|    5|          12|           6|
    |tmp_124_fu_1967_p2                   |   icmp   |      0|  0|    5|          12|           4|
    |tmp_129_fu_1911_p2                   |   icmp   |      0|  0|    3|           6|           6|
    |tmp_133_fu_2104_p2                   |   icmp   |      0|  0|    5|          12|           2|
    |tmp_134_fu_2122_p2                   |   icmp   |      0|  0|    3|           6|           6|
    |tmp_137_fu_2172_p2                   |   icmp   |      0|  0|    3|           6|           6|
    |tmp_139_fu_2212_p2                   |   icmp   |      0|  0|    1|           1|           1|
    |tmp_140_fu_2218_p2                   |   icmp   |      0|  0|    3|           6|           6|
    |tmp_162_fu_5006_p2                   |   icmp   |      0|  0|    5|          14|           1|
    |tmp_164_fu_5022_p2                   |   icmp   |      0|  0|   12|          36|           1|
    |tmp_69_fu_316_p2                     |   icmp   |      0|  0|   22|          63|           1|
    |tmp_72_fu_429_p2                     |   icmp   |      0|  0|    5|          12|           4|
    |tmp_73_fu_438_p2                     |   icmp   |      0|  0|    5|          12|           6|
    |tmp_74_fu_444_p2                     |   icmp   |      0|  0|    5|          12|           5|
    |tmp_79_fu_493_p2                     |   icmp   |      0|  0|    5|          12|           6|
    |tmp_83_fu_610_p2                     |   icmp   |      0|  0|    5|          12|           6|
    |tmp_86_fu_658_p2                     |   icmp   |      0|  0|    5|          12|           6|
    |tmp_88_fu_686_p2                     |   icmp   |      0|  0|   19|          54|           1|
    |tmp_89_fu_692_p2                     |   icmp   |      0|  0|    5|          12|           6|
    |tmp_94_fu_380_p2                     |   icmp   |      0|  0|   22|          63|           1|
    |tmp_97_fu_767_p2                     |   icmp   |      0|  0|    5|          12|           4|
    |tmp_98_fu_776_p2                     |   icmp   |      0|  0|    5|          12|           6|
    |tmp_99_fu_782_p2                     |   icmp   |      0|  0|    5|          12|           5|
    |Range2_V_6_fu_668_p2                 |   lshr   |      0|  0|  160|          54|          54|
    |Range2_V_8_fu_1006_p2                |   lshr   |      0|  0|  160|          54|          54|
    |r_V_2_fu_1012_p2                     |   lshr   |      0|  0|  160|           2|          54|
    |r_V_fu_674_p2                        |   lshr   |      0|  0|  160|           2|          54|
    |brmerge123_i6_fu_1248_p2             |    or    |      0|  0|    1|           1|           1|
    |brmerge123_i7_fu_2362_p2             |    or    |      0|  0|    1|           1|           1|
    |brmerge123_i_fu_1464_p2              |    or    |      0|  0|    1|           1|           1|
    |brmerge_i6_fu_1535_p2                |    or    |      0|  0|    1|           1|           1|
    |brmerge_i9_fu_2487_p2                |    or    |      0|  0|    1|           1|           1|
    |brmerge_i_fu_1658_p2                 |    or    |      0|  0|    1|           1|           1|
    |brmerge_i_i1_fu_1691_p2              |    or    |      0|  0|    1|           1|           1|
    |brmerge_i_i4_fu_2512_p2              |    or    |      0|  0|    1|           1|           1|
    |brmerge_i_i_fu_1568_p2               |    or    |      0|  0|    1|           1|           1|
    |carry_1_not_i6_fu_1236_p2            |    or    |      0|  0|    1|           1|           1|
    |carry_1_not_i7_fu_2352_p2            |    or    |      0|  0|    1|           1|           1|
    |carry_1_not_i_fu_1452_p2             |    or    |      0|  0|    1|           1|           1|
    |deleted_ones_0_i6_fu_1500_p2         |    or    |      0|  0|    1|           1|           1|
    |deleted_ones_0_i7_fu_2404_p2         |    or    |      0|  0|    1|           1|           1|
    |deleted_ones_0_i_fu_1621_p2          |    or    |      0|  0|    1|           1|           1|
    |p_119_i6_fu_1184_p2                  |    or    |      0|  0|    1|           1|           1|
    |p_119_i_fu_1400_p2                   |    or    |      0|  0|    1|           1|           1|
    |p_120_i6_fu_1260_p2                  |    or    |      0|  0|    1|           1|           1|
    |p_120_i7_fu_2374_p2                  |    or    |      0|  0|    1|           1|           1|
    |p_120_i_fu_1476_p2                   |    or    |      0|  0|    1|           1|           1|
    |sel_tmp122_demorgan_fu_1721_p2       |    or    |      0|  0|    1|           1|           1|
    |sel_tmp33_fu_710_p2                  |    or    |      0|  0|    1|           1|           1|
    |sel_tmp57_demorgan_fu_1589_p2        |    or    |      0|  0|    1|           1|           1|
    |sel_tmp59_fu_1048_p2                 |    or    |      0|  0|    1|           1|           1|
    |sel_tmp80_fu_2229_p2                 |    or    |      0|  0|    1|           1|           1|
    |tmp12_fu_1231_p2                     |    or    |      0|  0|    1|           1|           1|
    |tmp17_fu_1447_p2                     |    or    |      0|  0|    1|           1|           1|
    |tmp22_fu_2348_p2                     |    or    |      0|  0|    1|           1|           1|
    |tmp280_demorgan_fu_1119_p2           |    or    |      0|  0|    1|           1|           1|
    |tmp286_demorgan_fu_1335_p2           |    or    |      0|  0|    1|           1|           1|
    |tmp292_demorgan_fu_2272_p2           |    or    |      0|  0|    1|           1|           1|
    |tmp_103_fu_813_p2                    |    shl   |      0|  0|   88|          32|          32|
    |tmp_128_fu_1995_p2                   |    shl   |      0|  0|   88|          32|          32|
    |tmp_78_fu_475_p2                     |    shl   |      0|  0|   88|          32|          32|
    |Range1_all_zeros_5_fu_1389_p2        |    xor   |      0|  0|    2|           1|           2|
    |Range1_all_zeros_7_fu_2303_p2        |    xor   |      0|  0|    2|           1|           2|
    |Range1_all_zeros_fu_1173_p2          |    xor   |      0|  0|    2|           1|           2|
    |Range2_all_ones_1_not_i6_fu_1242_p2  |    xor   |      0|  0|    2|           1|           2|
    |Range2_all_ones_1_not_i7_fu_2357_p2  |    xor   |      0|  0|    2|           1|           2|
    |Range2_all_ones_1_not_i_fu_1458_p2   |    xor   |      0|  0|    2|           1|           2|
    |brmerge121_i6_fu_1556_p2             |    xor   |      0|  0|    2|           1|           2|
    |brmerge121_i7_fu_2502_p2             |    xor   |      0|  0|    2|           1|           2|
    |brmerge121_i_fu_1679_p2              |    xor   |      0|  0|    2|           1|           2|
    |brmerge_i_i3_fu_1809_p2              |    xor   |      0|  0|    1|           1|           1|
    |brmerge_i_i5_1_fu_2878_p2            |    xor   |      0|  0|    1|           1|           1|
    |brmerge_i_i5_2_fu_3108_p2            |    xor   |      0|  0|    1|           1|           1|
    |brmerge_i_i5_3_fu_3337_p2            |    xor   |      0|  0|    1|           1|           1|
    |brmerge_i_i5_4_fu_3566_p2            |    xor   |      0|  0|    1|           1|           1|
    |brmerge_i_i5_5_fu_3795_p2            |    xor   |      0|  0|    1|           1|           1|
    |brmerge_i_i5_6_fu_4024_p2            |    xor   |      0|  0|    1|           1|           1|
    |brmerge_i_i5_7_fu_4253_p2            |    xor   |      0|  0|    1|           1|           1|
    |brmerge_i_i5_8_fu_4482_p2            |    xor   |      0|  0|    1|           1|           1|
    |brmerge_i_i5_9_fu_4711_p2            |    xor   |      0|  0|    1|           1|           1|
    |brmerge_i_i5_fu_2657_p2              |    xor   |      0|  0|    1|           1|           1|
    |brmerge_i_i6_1_fu_2932_p2            |    xor   |      0|  0|    1|           1|           1|
    |brmerge_i_i6_2_fu_3162_p2            |    xor   |      0|  0|    1|           1|           1|
    |brmerge_i_i6_3_fu_3391_p2            |    xor   |      0|  0|    1|           1|           1|
    |brmerge_i_i6_4_fu_3620_p2            |    xor   |      0|  0|    1|           1|           1|
    |brmerge_i_i6_5_fu_3849_p2            |    xor   |      0|  0|    1|           1|           1|
    |brmerge_i_i6_6_fu_4078_p2            |    xor   |      0|  0|    1|           1|           1|
    |brmerge_i_i6_7_fu_4307_p2            |    xor   |      0|  0|    1|           1|           1|
    |brmerge_i_i6_8_fu_4536_p2            |    xor   |      0|  0|    1|           1|           1|
    |brmerge_i_i6_9_fu_4840_p2            |    xor   |      0|  0|    1|           1|           1|
    |brmerge_i_i6_fu_2707_p2              |    xor   |      0|  0|    1|           1|           1|
    |brmerge_i_i6_s_fu_4925_p2            |    xor   |      0|  0|    1|           1|           1|
    |brmerge_i_i_i_1_fu_2976_p2           |    xor   |      0|  0|    1|           1|           1|
    |brmerge_i_i_i_2_fu_3205_p2           |    xor   |      0|  0|    1|           1|           1|
    |brmerge_i_i_i_3_fu_3434_p2           |    xor   |      0|  0|    1|           1|           1|
    |brmerge_i_i_i_4_fu_3663_p2           |    xor   |      0|  0|    1|           1|           1|
    |brmerge_i_i_i_5_fu_3892_p2           |    xor   |      0|  0|    1|           1|           1|
    |brmerge_i_i_i_6_fu_4121_p2           |    xor   |      0|  0|    1|           1|           1|
    |brmerge_i_i_i_7_fu_4350_p2           |    xor   |      0|  0|    1|           1|           1|
    |brmerge_i_i_i_8_fu_4579_p2           |    xor   |      0|  0|    1|           1|           1|
    |brmerge_i_i_i_9_fu_4802_p2           |    xor   |      0|  0|    1|           1|           1|
    |brmerge_i_i_i_fu_2779_p2             |    xor   |      0|  0|    1|           1|           1|
    |brmerge_i_i_i_s_fu_4968_p2           |    xor   |      0|  0|    1|           1|           1|
    |deleted_zeros_6_not_fu_1648_p2       |    xor   |      0|  0|    2|           1|           2|
    |deleted_zeros_7_not_fu_2433_p2       |    xor   |      0|  0|    2|           1|           2|
    |deleted_zeros_not_fu_1525_p2         |    xor   |      0|  0|    2|           1|           2|
    |rev3_fu_962_p2                       |    xor   |      0|  0|    2|           1|           2|
    |rev4_fu_990_p2                       |    xor   |      0|  0|    2|           1|           2|
    |rev5_fu_2136_p2                      |    xor   |      0|  0|    2|           1|           2|
    |rev6_fu_652_p2                       |    xor   |      0|  0|    2|           1|           2|
    |rev7_fu_2167_p2                      |    xor   |      0|  0|    2|           1|           2|
    |rev_fu_624_p2                        |    xor   |      0|  0|    2|           1|           2|
    |sel_tmp154_not_fu_2241_p2            |    xor   |      0|  0|    2|           1|           2|
    |sel_tmp18_not_fu_1225_p2             |    xor   |      0|  0|    2|           1|           2|
    |sel_tmp1_fu_539_p2                   |    xor   |      0|  0|    2|           1|           2|
    |sel_tmp42_fu_1279_p2                 |    xor   |      0|  0|    2|           1|           2|
    |sel_tmp47_fu_1600_p2                 |    xor   |      0|  0|    2|           1|           2|
    |sel_tmp50_fu_877_p2                  |    xor   |      0|  0|    2|           1|           2|
    |sel_tmp54_fu_1311_p2                 |    xor   |      0|  0|    2|           1|           2|
    |sel_tmp63_fu_1616_p2                 |    xor   |      0|  0|    2|           1|           2|
    |sel_tmp68_fu_1732_p2                 |    xor   |      0|  0|    2|           1|           2|
    |sel_tmp71_fu_2051_p2                 |    xor   |      0|  0|    2|           1|           2|
    |sel_tmp75_fu_2068_p2                 |    xor   |      0|  0|    2|           1|           2|
    |sel_tmp7_fu_1095_p2                  |    xor   |      0|  0|    2|           1|           2|
    |sel_tmp83_not_fu_1441_p2             |    xor   |      0|  0|    2|           1|           2|
    |sel_tmp84_fu_2399_p2                 |    xor   |      0|  0|    2|           1|           2|
    |sel_tmp88_fu_2540_p2                 |    xor   |      0|  0|    2|           1|           2|
    |tmp10_fu_1124_p2                     |    xor   |      0|  0|    2|           1|           2|
    |tmp15_fu_1340_p2                     |    xor   |      0|  0|    2|           1|           2|
    |tmp20_fu_2276_p2                     |    xor   |      0|  0|    2|           1|           2|
    |tmp_115_fu_1611_p2                   |    xor   |      0|  0|    2|           1|           2|
    |tmp_116_fu_1663_p2                   |    xor   |      0|  0|    2|           1|           2|
    |tmp_127_not_fu_1042_p2               |    xor   |      0|  0|    2|           1|           2|
    |tmp_141_fu_2393_p2                   |    xor   |      0|  0|    2|           1|           2|
    |tmp_142_fu_2491_p2                   |    xor   |      0|  0|    2|           1|           2|
    |tmp_163_not_fu_2223_p2               |    xor   |      0|  0|    2|           1|           2|
    |tmp_90_fu_1495_p2                    |    xor   |      0|  0|    2|           1|           2|
    |tmp_91_fu_1540_p2                    |    xor   |      0|  0|    2|           1|           2|
    |tmp_95_not_fu_704_p2                 |    xor   |      0|  0|    2|           1|           2|
    +-------------------------------------+----------+-------+---+-----+------------+------------+
    |Total                                |          |      0|  0| 5708|        2495|        4447|
    +-------------------------------------+----------+-------+---+-----+------------+------------+

    * Multiplexer: 
    N/A

    * Register: 
    +----------------------------------------------+----+----+-----+-----------+
    |                     Name                     | FF | LUT| Bits| Const Bits|
    +----------------------------------------------+----+----+-----+-----------+
    |F2_2_reg_5210                                 |  12|   0|   12|          0|
    |F2_3_reg_5589                                 |   0|   0|   12|         12|
    |F2_reg_5166                                   |  12|   0|   12|          0|
    |QUAN_INC_3_reg_5596                           |   1|   0|    1|          0|
    |Range1_all_ones_2_i6_18_reg_5454              |   1|   0|    1|          0|
    |Range1_all_ones_2_i_19_reg_5489               |   1|   0|    1|          0|
    |Range1_all_ones_7_reg_5697                    |   1|   0|    1|          0|
    |Range1_all_zeros_4_reg_5310                   |   1|   0|    1|          0|
    |Range1_all_zeros_6_reg_5414                   |   1|   0|    1|          0|
    |Range2_all_ones_1_i7_reg_5709                 |   1|   0|    1|          0|
    |Range2_all_ones_2_reg_5404                    |   1|   0|    1|          0|
    |Range2_all_ones_reg_5300                      |   1|   0|    1|          0|
    |ap_reg_ppstg_p_Repl2_8_reg_5748_pp0_it8       |   1|   0|    1|          0|
    |ap_reg_ppstg_p_Val2_34_reg_5465_pp0_it3       |  21|   0|   21|          0|
    |ap_reg_ppstg_p_Val2_41_reg_5736_pp0_it8       |  14|   0|   14|          0|
    |ap_reg_ppstg_p_theta_V_1_s_reg_6190_pp0_it20  |  14|   0|   14|          0|
    |ap_reg_ppstg_tmp_108_reg_5371_pp0_it2         |   1|   0|    1|          0|
    |ap_reg_ppstg_tmp_133_reg_5677_pp0_it7         |   1|   0|    1|          0|
    |ap_reg_ppstg_tmp_83_reg_5267_pp0_it2          |   1|   0|    1|          0|
    |brmerge121_demorgan_i7_reg_5759               |   1|   0|    1|          0|
    |brmerge_i_i1_reg_5514                         |   1|   0|    1|          0|
    |brmerge_i_i3_reg_5556                         |   1|   0|    1|          0|
    |brmerge_i_i5_1_reg_5851                       |   1|   0|    1|          0|
    |brmerge_i_i5_2_reg_5888                       |   1|   0|    1|          0|
    |brmerge_i_i5_3_reg_5925                       |   1|   0|    1|          0|
    |brmerge_i_i5_4_reg_5962                       |   1|   0|    1|          0|
    |brmerge_i_i5_5_reg_5999                       |   1|   0|    1|          0|
    |brmerge_i_i5_6_reg_6036                       |   1|   0|    1|          0|
    |brmerge_i_i5_7_reg_6073                       |   1|   0|    1|          0|
    |brmerge_i_i5_8_reg_6110                       |   1|   0|    1|          0|
    |brmerge_i_i5_9_reg_6147                       |   1|   0|    1|          0|
    |brmerge_i_i5_reg_5802                         |   1|   0|    1|          0|
    |brmerge_i_i6_1_reg_5867                       |   1|   0|    1|          0|
    |brmerge_i_i6_2_reg_5904                       |   1|   0|    1|          0|
    |brmerge_i_i6_3_reg_5941                       |   1|   0|    1|          0|
    |brmerge_i_i6_4_reg_5978                       |   1|   0|    1|          0|
    |brmerge_i_i6_5_reg_6015                       |   1|   0|    1|          0|
    |brmerge_i_i6_6_reg_6052                       |   1|   0|    1|          0|
    |brmerge_i_i6_7_reg_6089                       |   1|   0|    1|          0|
    |brmerge_i_i6_8_reg_6126                       |   1|   0|    1|          0|
    |brmerge_i_i6_reg_5818                         |   1|   0|    1|          0|
    |brmerge_i_i6_s_reg_6185                       |   1|   0|    1|          0|
    |deleted_ones_2_reg_5484                       |   1|   0|    1|          0|
    |deleted_ones_reg_5449                         |   1|   0|    1|          0|
    |deleted_zeros_0_not_i7_reg_5754               |   1|   0|    1|          0|
    |deleted_zeros_2_reg_5479                      |   1|   0|    1|          0|
    |deleted_zeros_reg_5444                        |   1|   0|    1|          0|
    |dp_5_reg_6231                                 |  32|   0|   32|          0|
    |icmp2_reg_5365                                |   1|   0|    1|          0|
    |icmp_reg_5261                                 |   1|   0|    1|          0|
    |isneg_4_reg_5178                              |   1|   0|    1|          0|
    |isneg_5_reg_5545                              |   1|   0|    1|          0|
    |isneg_6_reg_5568                              |   1|   0|    1|          0|
    |isneg_reg_5134                                |   1|   0|    1|          0|
    |lD_2_reg_5387                                 |   1|   0|    1|          0|
    |lD_reg_5283                                   |   1|   0|    1|          0|
    |man_V_12_reg_5154                             |  54|   0|   54|          0|
    |man_V_15_reg_5198                             |  54|   0|   54|          0|
    |newsignbit_4_reg_5472                         |   1|   0|    1|          0|
    |newsignbit_7_reg_5743                         |   1|   0|    1|          0|
    |newsignbit_reg_5437                           |   1|   0|    1|          0|
    |p_Repl2_6_reg_5509                            |   1|   0|    1|          0|
    |p_Repl2_8_reg_5748                            |   1|   0|    1|          0|
    |p_Result_22_reg_5149                          |  52|   0|   54|          2|
    |p_Result_23_reg_5193                          |  52|   0|   54|          2|
    |p_Result_24_reg_6226                          |  32|   0|   32|          0|
    |p_Result_s_reg_5494                           |  21|   0|   21|          0|
    |p_Val2_28_reg_5227                            |  21|   0|   21|          0|
    |p_Val2_30_reg_5430                            |  21|   0|   21|          0|
    |p_Val2_32_reg_5331                            |  21|   0|   21|          0|
    |p_Val2_34_reg_5465                            |  21|   0|   21|          0|
    |p_Val2_39_reg_5642                            |  14|   0|   14|          0|
    |p_Val2_41_reg_5736                            |  14|   0|   14|          0|
    |p_Val2_46_reg_5550                            |  21|   0|   21|          0|
    |p_Val2_55_reg_5582                            |  50|   0|   54|          4|
    |p_theta_V_1_1_reg_5872                        |  14|   0|   14|          0|
    |p_theta_V_1_2_reg_5909                        |  14|   0|   14|          0|
    |p_theta_V_1_3_reg_5946                        |  14|   0|   14|          0|
    |p_theta_V_1_4_reg_5983                        |  14|   0|   14|          0|
    |p_theta_V_1_5_reg_6020                        |  14|   0|   14|          0|
    |p_theta_V_1_6_reg_6057                        |  14|   0|   14|          0|
    |p_theta_V_1_7_reg_6094                        |  14|   0|   14|          0|
    |p_theta_V_1_8_reg_6131                        |  14|   0|   14|          0|
    |p_theta_V_1_9_reg_6169                        |  14|   0|   14|          0|
    |p_theta_V_1_s_reg_6190                        |  14|   0|   14|          0|
    |pos2_3_reg_5625                               |   0|   0|   12|         12|
    |qb_2_reg_5336                                 |   1|   0|    1|          0|
    |qb_reg_5232                                   |   1|   0|    1|          0|
    |rev3_reg_5379                                 |   1|   0|    1|          0|
    |rev4_reg_5392                                 |   1|   0|    1|          0|
    |rev5_reg_5690                                 |   1|   0|    1|          0|
    |rev6_reg_5288                                 |   1|   0|    1|          0|
    |rev_reg_5275                                  |   1|   0|    1|          0|
    |sel_tmp13_reg_5254                            |   1|   0|    1|          0|
    |sel_tmp154_not_reg_5726                       |   1|   0|    1|          0|
    |sel_tmp2_reg_5248                             |   1|   0|    1|          0|
    |sel_tmp34_reg_5315                            |   1|   0|    1|          0|
    |sel_tmp42_reg_5459                            |   1|   0|    1|          0|
    |sel_tmp46_reg_5499                            |  21|   0|   21|          0|
    |sel_tmp49_reg_5347                            |  21|   0|   21|          0|
    |sel_tmp51_reg_5352                            |   1|   0|    1|          0|
    |sel_tmp58_reg_5358                            |   1|   0|    1|          0|
    |sel_tmp60_reg_5419                            |   1|   0|    1|          0|
    |sel_tmp70_reg_5654                            |  11|   0|   14|          3|
    |sel_tmp73_reg_5659                            |   1|   0|    1|          0|
    |sel_tmp76_reg_5665                            |   1|   0|    1|          0|
    |sel_tmp79_reg_5670                            |   1|   0|    1|          0|
    |sel_tmp81_reg_5720                            |   1|   0|    1|          0|
    |sel_tmp87_reg_5769                            |   1|   0|    1|          0|
    |sel_tmp89_reg_5779                            |   1|   0|    1|          0|
    |sel_tmp_reg_5243                              |  21|   0|   21|          0|
    |sh_amt_3_reg_5602                             |  11|   0|   12|          1|
    |tmp14_reg_5504                                |   1|   0|    1|          0|
    |tmp_108_reg_5371                              |   1|   0|    1|          0|
    |tmp_111_reg_5398                              |   1|   0|    1|          0|
    |tmp_113_reg_5409                              |   1|   0|    1|          0|
    |tmp_119_reg_5577                              |   0|   0|   12|         12|
    |tmp_129_reg_5615                              |   1|   0|    1|          0|
    |tmp_133_reg_5677                              |   1|   0|    1|          0|
    |tmp_134_reg_5683                              |   1|   0|    1|          0|
    |tmp_137_reg_5704                              |   1|   0|    1|          0|
    |tmp_139_reg_5715                              |   1|   0|    1|          0|
    |tmp_162_reg_6196                              |   1|   0|    1|          0|
    |tmp_163_reg_6201                              |  37|   0|   37|          0|
    |tmp_164_reg_6216                              |   1|   0|    1|          0|
    |tmp_69_reg_5159                               |   1|   0|    1|          0|
    |tmp_761_reg_5222                              |  21|   0|   21|          0|
    |tmp_763_reg_5237                              |   1|   0|    1|          0|
    |tmp_770_reg_5321                              |   1|   0|    1|          0|
    |tmp_777_reg_5326                              |  21|   0|   21|          0|
    |tmp_779_reg_5341                              |   1|   0|    1|          0|
    |tmp_786_reg_5425                              |   1|   0|    1|          0|
    |tmp_788_reg_5531                              |   1|   0|    1|          0|
    |tmp_789_reg_5540                              |   1|   0|    1|          0|
    |tmp_798_reg_5609                              |  10|   0|   14|          4|
    |tmp_800_reg_5637                              |  13|   0|   14|          1|
    |tmp_801_reg_5620                              |   1|   0|    1|          0|
    |tmp_803_reg_5648                              |   1|   0|    1|          0|
    |tmp_807_reg_5632                              |   1|   0|    1|          0|
    |tmp_808_reg_5731                              |   1|   0|    1|          0|
    |tmp_811_reg_5791                              |   1|   0|    1|          0|
    |tmp_812_reg_5796                              |  21|   0|   21|          0|
    |tmp_815_reg_5807                              |   1|   0|    1|          0|
    |tmp_816_reg_5812                              |  21|   0|   21|          0|
    |tmp_819_reg_5823                              |   1|   0|    1|          0|
    |tmp_820_reg_5829                              |  14|   0|   14|          0|
    |tmp_821_reg_5835                              |   1|   0|    1|          0|
    |tmp_824_reg_5840                              |   1|   0|    1|          0|
    |tmp_825_reg_5845                              |  21|   0|   21|          0|
    |tmp_828_reg_5856                              |   1|   0|    1|          0|
    |tmp_829_reg_5861                              |  21|   0|   21|          0|
    |tmp_837_reg_5877                              |   1|   0|    1|          0|
    |tmp_838_reg_5882                              |  21|   0|   21|          0|
    |tmp_83_reg_5267                               |   1|   0|    1|          0|
    |tmp_841_reg_5893                              |   1|   0|    1|          0|
    |tmp_842_reg_5898                              |  21|   0|   21|          0|
    |tmp_850_reg_5914                              |   1|   0|    1|          0|
    |tmp_851_reg_5919                              |  21|   0|   21|          0|
    |tmp_854_reg_5930                              |   1|   0|    1|          0|
    |tmp_855_reg_5935                              |  21|   0|   21|          0|
    |tmp_863_reg_5951                              |   1|   0|    1|          0|
    |tmp_864_reg_5956                              |  21|   0|   21|          0|
    |tmp_867_reg_5967                              |   1|   0|    1|          0|
    |tmp_868_reg_5972                              |  21|   0|   21|          0|
    |tmp_86_reg_5294                               |   1|   0|    1|          0|
    |tmp_876_reg_5988                              |   1|   0|    1|          0|
    |tmp_877_reg_5993                              |  21|   0|   21|          0|
    |tmp_880_reg_6004                              |   1|   0|    1|          0|
    |tmp_881_reg_6009                              |  21|   0|   21|          0|
    |tmp_889_reg_6025                              |   1|   0|    1|          0|
    |tmp_88_reg_5305                               |   1|   0|    1|          0|
    |tmp_890_reg_6030                              |  21|   0|   21|          0|
    |tmp_893_reg_6041                              |   1|   0|    1|          0|
    |tmp_894_reg_6046                              |  21|   0|   21|          0|
    |tmp_902_reg_6062                              |   1|   0|    1|          0|
    |tmp_903_reg_6067                              |  21|   0|   21|          0|
    |tmp_906_reg_6078                              |   1|   0|    1|          0|
    |tmp_907_reg_6083                              |  21|   0|   21|          0|
    |tmp_915_reg_6099                              |   1|   0|    1|          0|
    |tmp_916_reg_6104                              |  21|   0|   21|          0|
    |tmp_919_reg_6115                              |   1|   0|    1|          0|
    |tmp_920_reg_6120                              |  21|   0|   21|          0|
    |tmp_928_reg_6136                              |   1|   0|    1|          0|
    |tmp_929_reg_6141                              |  21|   0|   21|          0|
    |tmp_92_reg_5188                               |  11|   0|   12|          1|
    |tmp_932_reg_6152                              |   1|   0|    1|          0|
    |tmp_933_reg_6158                              |  21|   0|   21|          0|
    |tmp_934_reg_6164                              |   1|   0|    1|          0|
    |tmp_941_reg_6174                              |   1|   0|    1|          0|
    |tmp_942_reg_6179                              |  21|   0|   21|          0|
    |tmp_949_reg_6206                              |  36|   0|   36|          0|
    |tmp_94_reg_5203                               |   1|   0|    1|          0|
    |tmp_s_reg_5144                                |  11|   0|   12|          1|
    |x_V_1_reg_5764                                |  21|   0|   21|          0|
    |x_V_3_reg_5786                                |  21|   0|   21|          0|
    |x_V_reg_5519                                  |  21|   0|   21|          0|
    |y_V_1_reg_5561                                |  21|   0|   21|          0|
    |y_V_3_reg_5774                                |  21|   0|   21|          0|
    |y_V_reg_5524                                  |  21|   0|   21|          0|
    |icmp2_reg_5365                                |   0|   1|    1|          0|
    |icmp_reg_5261                                 |   0|   1|    1|          0|
    |isneg_4_reg_5178                              |   0|   1|    1|          0|
    |isneg_6_reg_5568                              |   0|   1|    1|          0|
    |isneg_reg_5134                                |   0|   1|    1|          0|
    |tmp_162_reg_6196                              |   0|   1|    1|          0|
    |tmp_164_reg_6216                              |   0|   1|    1|          0|
    |tmp_69_reg_5159                               |   0|   1|    1|          0|
    |tmp_788_reg_5531                              |   0|   1|    1|          0|
    |tmp_789_reg_5540                              |   0|   1|    1|          0|
    |tmp_94_reg_5203                               |   0|   1|    1|          0|
    |x_V_reg_5519                                  |   0|  21|   21|          0|
    |y_V_1_reg_5561                                |   0|  21|   21|          0|
    |y_V_reg_5524                                  |   0|  21|   21|          0|
    +----------------------------------------------+----+----+-----+-----------+
    |Total                                         |1644|  74| 1773|         55|
    +----------------------------------------------+----+----+-----+-----------+



================================================================
== Interface
================================================================
* Summary: 
+-------------+-----+-----+------------+------------------------------+--------------+
|  RTL Ports  | Dir | Bits|  Protocol  |         Source Object        |    C Type    |
+-------------+-----+-----+------------+------------------------------+--------------+
|ap_clk       |  in |    1| ap_ctrl_hs | phasedetector_cordiccart2pol | return value |
|ap_rst       |  in |    1| ap_ctrl_hs | phasedetector_cordiccart2pol | return value |
|ap_return_0  | out |   32| ap_ctrl_hs | phasedetector_cordiccart2pol | return value |
|ap_return_1  | out |   32| ap_ctrl_hs | phasedetector_cordiccart2pol | return value |
|x_in         |  in |   32|   ap_none  |             x_in             |    scalar    |
|y_in         |  in |   32|   ap_none  |             y_in             |    scalar    |
+-------------+-----+-----+------------+------------------------------+--------------+

