

================================================================
== Vivado HLS Report for 'cordiccart2pol'
================================================================
* Date:           Sun Oct 29 04:25:59 2017

* Version:        2015.4 (Build 1412921 on Wed Nov 18 09:58:55 AM 2015)
* Project:        cordiccart2pol
* Solution:       solution1
* Product family: zynq
* Target device:  xc7z020clg484-1


================================================================
== Performance Estimates
================================================================
+ Timing (ns): 
    * Summary: 
    +--------+-------+----------+------------+
    |  Clock | Target| Estimated| Uncertainty|
    +--------+-------+----------+------------+
    |ap_clk  |  10.00|      8.22|        1.25|
    +--------+-------+----------+------------+

+ Latency (clock cycles): 
    * Summary: 
    +-----+-----+-----+-----+---------+
    |  Latency  |  Interval | Pipeline|
    | min | max | min | max |   Type  |
    +-----+-----+-----+-----+---------+
    |   99|   99|  100|  100|   none  |
    +-----+-----+-----+-----+---------+

    + Detail: 
        * Instance: 
        N/A

        * Loop: 
        +----------+-----+-----+----------+-----------+-----------+------+----------+
        |          |  Latency  | Iteration|  Initiation Interval  | Trip |          |
        | Loop Name| min | max |  Latency |  achieved |   target  | Count| Pipelined|
        +----------+-----+-----+----------+-----------+-----------+------+----------+
        |- Loop 1  |   96|   96|         6|          -|          -|    16|    no    |
        +----------+-----+-----+----------+-----------+-----------+------+----------+



================================================================
== Utilization Estimates
================================================================
* Summary: 
+-----------------+---------+-------+--------+-------+
|       Name      | BRAM_18K| DSP48E|   FF   |  LUT  |
+-----------------+---------+-------+--------+-------+
|DSP              |        -|      3|       -|      -|
|Expression       |        -|      -|       0|    479|
|FIFO             |        -|      -|       -|      -|
|Instance         |        -|      -|       -|      -|
|Memory           |        0|      -|      21|      6|
|Multiplexer      |        -|      -|       -|     48|
|Register         |        -|      -|     251|      -|
+-----------------+---------+-------+--------+-------+
|Total            |        0|      3|     272|    533|
+-----------------+---------+-------+--------+-------+
|Available        |      280|    220|  106400|  53200|
+-----------------+---------+-------+--------+-------+
|Utilization (%)  |        0|      1|   ~0   |      1|
+-----------------+---------+-------+--------+-------+

+ Detail: 
    * Instance: 
    N/A

    * DSP48: 
    +------------------------------------------+---------------------------------------+-----------+
    |                 Instance                 |                 Module                | Expression|
    +------------------------------------------+---------------------------------------+-----------+
    |cordiccart2pol_mul_mul_11ns_13s_24_1_U2   |cordiccart2pol_mul_mul_11ns_13s_24_1   |  i0 * i1  |
    |cordiccart2pol_mul_mul_13s_11ns_23_1_U0   |cordiccart2pol_mul_mul_13s_11ns_23_1   |  i0 * i1  |
    |cordiccart2pol_mul_mul_17ns_16ns_33_1_U1  |cordiccart2pol_mul_mul_17ns_16ns_33_1  |  i0 * i1  |
    +------------------------------------------+---------------------------------------+-----------+

    * Memory: 
    +-------------+--------------------------+---------+----+----+------+-----+------+-------------+
    |    Memory   |          Module          | BRAM_18K| FF | LUT| Words| Bits| Banks| W*Bits*Banks|
    +-------------+--------------------------+---------+----+----+------+-----+------+-------------+
    |Kvalues_V_U  |cordiccart2pol_Kvalues_V  |        0|  11|   3|    16|   11|     1|          176|
    |angles_V_U   |cordiccart2pol_angles_V   |        0|  10|   3|    16|   10|     1|          160|
    +-------------+--------------------------+---------+----+----+------+-----+------+-------------+
    |Total        |                          |        0|  21|   6|    32|   21|     2|          336|
    +-------------+--------------------------+---------+----+----+------+-----+------+-------------+

    * FIFO: 
    N/A

    * Expression: 
    +---------------------------------+----------+-------+---+----+------------+------------+
    |          Variable Name          | Operation| DSP48E| FF| LUT| Bitwidth P0| Bitwidth P1|
    +---------------------------------+----------+-------+---+----+------------+------------+
    |i_1_fu_396_p2                    |     +    |      0|  0|   5|           5|           1|
    |p_Val2_10_fu_633_p2              |     +    |      0|  0|  13|          13|          13|
    |p_Val2_12_fu_879_p2              |     +    |      0|  0|  13|          13|          13|
    |p_Val2_16_fu_724_p2              |     +    |      0|  0|  13|          13|          13|
    |p_Val2_8_fu_589_p2               |     +    |      0|  0|  24|          24|          24|
    |mf2_cast_fu_653_p2               |     -    |      0|  0|  23|           1|          23|
    |mf4_fu_485_p2                    |     -    |      0|  0|  11|           1|          11|
    |mf_fu_566_p2                     |     -    |      0|  0|  24|           1|          24|
    |p_Val2_14_fu_680_p2              |     -    |      0|  0|  24|          24|          24|
    |p_Val2_19_fu_507_p2              |     -    |      0|  0|  14|          14|          14|
    |p_Val2_2_fu_228_p2               |     -    |      0|  0|  14|           1|          14|
    |p_Val2_s_fu_198_p2               |     -    |      0|  0|  14|           1|          14|
    |Theta_V_fu_559_p3                |  Select  |      0|  0|  13|           1|          13|
    |newSel1_fu_324_p3                |  Select  |      0|  0|  13|           1|          13|
    |newSel2_fu_352_p3                |  Select  |      0|  0|  13|           1|          13|
    |newSel3_fu_332_p3                |  Select  |      0|  0|  13|           1|          13|
    |newSel4_fu_340_p3                |  Select  |      0|  0|  13|           1|          13|
    |newSel5_fu_358_p3                |  Select  |      0|  0|  13|           1|          13|
    |newSel6_fu_364_p3                |  Select  |      0|  0|  12|           1|          11|
    |newSel7_fu_371_p3                |  Select  |      0|  0|  12|           1|          12|
    |newSel8_fu_378_p3                |  Select  |      0|  0|  12|           1|          12|
    |newSel_fu_316_p3                 |  Select  |      0|  0|  13|           1|          13|
    |p_Val2_13_fu_658_p3              |  Select  |      0|  0|  23|           1|          23|
    |p_Val2_17_fu_491_p3              |  Select  |      0|  0|  11|           1|          11|
    |p_Val2_7_fu_571_p3               |  Select  |      0|  0|  24|           1|          24|
    |r_V_3                            |  Select  |      0|  0|  13|           1|          13|
    |tmp_2_fu_438_p3                  |  Select  |      0|  0|  17|           1|          17|
    |x_next_V_fu_870_p3               |  Select  |      0|  0|  13|           1|          13|
    |y_next_V_fu_856_p3               |  Select  |      0|  0|  13|           1|          13|
    |brmerge40_demorgan_i2_fu_832_p2  |    and   |      0|  0|   1|           1|           1|
    |brmerge40_demorgan_i_fu_780_p2   |    and   |      0|  0|   1|           1|           1|
    |carry_fu_898_p2                  |    and   |      0|  0|   1|           1|           1|
    |neg_src_5_fu_810_p2              |    and   |      0|  0|   1|           1|           1|
    |neg_src_fu_758_p2                |    and   |      0|  0|   1|           1|           1|
    |overflow_1_fu_826_p2             |    and   |      0|  0|   1|           1|           1|
    |overflow_fu_774_p2               |    and   |      0|  0|   1|           1|           1|
    |sel_tmp3_fu_298_p2               |    and   |      0|  0|   1|           1|           1|
    |sel_tmp6_fu_310_p2               |    and   |      0|  0|   1|           1|           1|
    |sel_tmp_fu_286_p2                |    and   |      0|  0|   1|           1|           1|
    |exitcond_fu_390_p2               |   icmp   |      0|  0|   3|           5|           6|
    |brmerge_i2_fu_769_p2             |    or    |      0|  0|   1|           1|           1|
    |brmerge_i4_fu_821_p2             |    or    |      0|  0|   1|           1|           1|
    |brmerge_i_i2_fu_790_p2           |    or    |      0|  0|   1|           1|           1|
    |brmerge_i_i3_fu_903_p2           |    or    |      0|  0|   1|           1|           1|
    |brmerge_i_i4_fu_842_p2           |    or    |      0|  0|   1|           1|           1|
    |not_carry_2_fu_796_p2            |    or    |      0|  0|   1|           1|           1|
    |not_carry_fu_744_p2              |    or    |      0|  0|   1|           1|           1|
    |or_cond_fu_348_p2                |    or    |      0|  0|   1|           1|           1|
    |brmerge_i_i1_fu_260_p2           |    xor   |      0|  0|   1|           1|           1|
    |brmerge_i_i_fu_254_p2            |    xor   |      0|  0|   1|           1|           1|
    |brmerge_i_i_i_fu_547_p2          |    xor   |      0|  0|   1|           1|           1|
    |deleted_zeros_1_fu_800_p2        |    xor   |      0|  0|   1|           1|           1|
    |deleted_zeros_fu_748_p2          |    xor   |      0|  0|   1|           1|           1|
    |p_Result_17_not_fu_738_p2        |    xor   |      0|  0|   2|           1|           2|
    |p_Result_2_not_fu_647_p2         |    xor   |      0|  0|   2|           1|           2|
    |p_not_i2_fu_815_p2               |    xor   |      0|  0|   2|           1|           2|
    |p_not_i_fu_763_p2                |    xor   |      0|  0|   2|           1|           2|
    |sel_tmp2_fu_292_p2               |    xor   |      0|  0|   2|           1|           2|
    |sel_tmp5_fu_304_p2               |    xor   |      0|  0|   2|           1|           2|
    |tmp_10_fu_753_p2                 |    xor   |      0|  0|   2|           1|           2|
    |tmp_15_fu_805_p2                 |    xor   |      0|  0|   2|           1|           2|
    |tmp_9_fu_892_p2                  |    xor   |      0|  0|   2|           1|           2|
    |underflow_1_fu_836_p2            |    xor   |      0|  0|   1|           1|           1|
    |underflow_fu_784_p2              |    xor   |      0|  0|   1|           1|           1|
    +---------------------------------+----------+-------+---+----+------------+------------+
    |Total                            |          |      0|  0| 479|         167|         477|
    +---------------------------------+----------+-------+---+----+------------+------------+

    * Multiplexer: 
    +-------------------+----+-----------+-----+-----------+
    |        Name       | LUT| Input Size| Bits| Total Bits|
    +-------------------+----+-----------+-----+-----------+
    |ap_NS_fsm          |   4|         10|    1|         10|
    |i_reg_175          |   5|          2|    5|         10|
    |p_Val2_18_reg_164  |  13|          2|   13|         26|
    |p_Val2_4_reg_144   |  13|          2|   13|         26|
    |p_Val2_6_reg_154   |  13|          2|   13|         26|
    +-------------------+----+-----------+-----+-----------+
    |Total              |  48|         18|   45|         98|
    +-------------------+----+-----------+-----+-----------+

    * Register: 
    +--------------------------+----+----+-----+-----------+
    |           Name           | FF | LUT| Bits| Const Bits|
    +--------------------------+----+----+-----+-----------+
    |Kvalues_V_load_reg_1039   |  11|   0|   11|          0|
    |OP1_V_4_cast_reg_1068     |  23|   0|   23|          0|
    |Theta_V_reg_1074          |  13|   0|   13|          0|
    |ap_CS_fsm                 |   9|   0|    9|          0|
    |brmerge_i_i2_reg_1136     |   1|   0|    1|          0|
    |brmerge_i_i4_reg_1146     |   1|   0|    1|          0|
    |i_1_reg_1003              |   5|   0|    5|          0|
    |i_reg_175                 |   5|   0|    5|          0|
    |isneg_2_reg_1045          |   1|   0|    1|          0|
    |neg_src_5_reg_1141        |   1|   0|    1|          0|
    |neg_src_reg_1131          |   1|   0|    1|          0|
    |newSel1_reg_970           |  13|   0|   13|          0|
    |newSel3_reg_975           |  13|   0|   13|          0|
    |newSel4_reg_980           |  13|   0|   13|          0|
    |newSel_reg_965            |  13|   0|   13|          0|
    |newsignbit_2_reg_1093     |   1|   0|    1|          0|
    |newsignbit_3_reg_1119     |   1|   0|    1|          0|
    |newsignbit_4_reg_1057     |   1|   0|    1|          0|
    |p_Result_17_not_reg_1126  |   1|   0|    1|          0|
    |p_Result_2_not_reg_1100   |   1|   0|    1|          0|
    |p_Val2_10_reg_1087        |  13|   0|   13|          0|
    |p_Val2_11_reg_1018        |  13|   0|   13|          0|
    |p_Val2_16_reg_1113        |  13|   0|   13|          0|
    |p_Val2_18_reg_164         |  13|   0|   13|          0|
    |p_Val2_20_reg_1051        |  13|   0|   13|          0|
    |p_Val2_4_reg_144          |  13|   0|   13|          0|
    |p_Val2_6_reg_154          |  13|   0|   13|          0|
    |r_V_reg_1062              |  24|   0|   24|          0|
    |sel_tmp3_reg_954          |   1|   0|    1|          0|
    |sel_tmp6_reg_959          |   1|   0|    1|          0|
    |sel_tmp_reg_949           |   1|   0|    1|          0|
    |signbit_1_reg_1105        |   1|   0|    1|          0|
    |signbit_reg_1079          |   1|   0|    1|          0|
    |tmp_27_reg_1023           |   1|   0|    1|          0|
    |tmp_28_reg_1028           |   1|   0|    1|          0|
    |tmp_31_reg_1033           |   1|   0|    1|          0|
    +--------------------------+----+----+-----+-----------+
    |Total                     | 251|   0|  251|          0|
    +--------------------------+----+----+-----+-----------+



================================================================
== Interface
================================================================
* Summary: 
+----------------+-----+-----+------------+----------------+--------------+
|    RTL Ports   | Dir | Bits|  Protocol  |  Source Object |    C Type    |
+----------------+-----+-----+------------+----------------+--------------+
|ap_clk          |  in |    1| ap_ctrl_hs | cordiccart2pol | return value |
|ap_rst          |  in |    1| ap_ctrl_hs | cordiccart2pol | return value |
|ap_start        |  in |    1| ap_ctrl_hs | cordiccart2pol | return value |
|ap_done         | out |    1| ap_ctrl_hs | cordiccart2pol | return value |
|ap_idle         | out |    1| ap_ctrl_hs | cordiccart2pol | return value |
|ap_ready        | out |    1| ap_ctrl_hs | cordiccart2pol | return value |
|x_V             |  in |   13|   ap_none  |       x_V      |    scalar    |
|y_V             |  in |   13|   ap_none  |       y_V      |    scalar    |
|r_V_3           | out |   13|   ap_vld   |      r_V_3     |    pointer   |
|r_V_3_ap_vld    | out |    1|   ap_vld   |      r_V_3     |    pointer   |
|theta_V         | out |   13|   ap_vld   |     theta_V    |    pointer   |
|theta_V_ap_vld  | out |    1|   ap_vld   |     theta_V    |    pointer   |
+----------------+-----+-----+------------+----------------+--------------+

